[
  {
    "description": "simple area chart",
    "extraSettings": {
      "axes": {
        "x": {
          "scaleType": "time",
          "ticks": {
            "interval": {
              "items": [
                {
                  "level": 0,
                  "type": "monthsInYear"
                }
              ]
            }
          }
        }
      },
      "caption": {
        "dateFormat": "%Y-%m-%d",
        "dateParser": "%d.%m.%Y",
        "domain": {
          "items": [
            {
              "domain": "date",
              "level": 0
            }
          ]
        },
        "mapping": {
          "items": [
            {
              "level": 0,
              "mapping": "date"
            }
          ]
        },
        "textAnchor": "start"
      },
      "chartContainerType": "axes-chart-container",
      "chartType": "area-chart",
      "colors": {
        "mapping": {
          "items": [
            {
              "level": 0,
              "mapping": "$group"
            }
          ]
        }
      },
      "dataResources": {
        "items": [
          {
            "level": 0,
            "dataResource": {
              "isEnabled": true,
              "mode": "cors",
              "queryUrl": "rest/areaCharts/response.json",
              "type": "rest"
            }
          },
          {
            "level": 0,
            "dataResource": {
              "isEnabled": true,
              "mode": "cors",
              "queryUrl": "rest/areaCharts2/response.json",
              "type": "rest"
            }
          }
        ]
      },
      "elements": {
        "opacity": 0.9
      },
      "group": {
        "mapping": {
          "items": [
            {
              "level": 0,
              "mapping": "category"
            }
          ]
        }
      },
      "id": "simpleAreaChart",
      "legend": {
        "mapping": {
          "items": [
            {
              "level": 0,
              "mapping": "$group"
            }
          ]
        }
      },
      "userResource": {
        "mode": "cors",
        "queryUrl": "rest/user/response.json"
      },
      "value": {
        "mapping": {
          "items": [
            {
              "level": 0,
              "mapping": "amount"
            }
          ]
        },
        "numberFormat": ".0f"
      }
    },
    "id": "simpleAreaChart",
    "label": "simple",
    "size": 6,
    "type": "areaChart",
    "value": "{{simpleAreaChart}}"
  },
  {
    "description": "simple bar chart",
    "extraSettings": {
      "caption": {
        "mapping": {
          "items": [
            {
              "level": 0,
              "mapping": "category"
            }
          ]
        }
      },
      "chartContainerType": "axes-chart-container",
      "chartType": "bar-chart",
      "dataResources": {
        "items": [
          {
            "level": 0,
            "dataResource": {
              "isEnabled": true,
              "mode": "cors",
              "queryUrl": "rest/barCharts/response.json",
              "type": "rest"
            }
          },
          {
            "level": 0,
            "dataResource": {
              "isEnabled": true,
              "mode": "cors",
              "queryUrl": "rest/barCharts2/response.json",
              "type": "rest"
            }
          }
        ]
      },
      "id": "simpleBarChart",
      "legend": {
        "mapping": {
          "items": [
            {
              "level": 0,
              "mapping": "$caption"
            }
          ]
        }
      },
      "userResource": {
        "mode": "cors",
        "queryUrl": "rest/user/response.json"
      },
      "value": {
        "isVisible": true,
        "mapping": {
          "items": [
            {
              "level": 0,
              "mapping": "amount"
            }
          ]
        },
        "numberFormat": ".0f"
      }
    },
    "id": "simpleBarChart",
    "label": "simple",
    "size": 6,
    "type": "barChart",
    "value": "{{simpleBarChart}}"
  },
  {
    "description": "simple gauge chart",
    "extraSettings": {
      "caption": {
        "mapping": {
          "items": [
            {
              "level": 0,
              "mapping": "category"
            }
          ]
        }
      },
      "chartContainerType": "plain-chart-container",
      "chartType": "gauge-chart",
      "dataResources": {
        "items": [
          {
            "level": 0,
            "dataResource": {
              "isEnabled": true,
              "mode": "cors",
              "queryUrl": "rest/gaugeCharts/response.json",
              "type": "rest"
            }
          },
          {
            "level": 0,
            "dataResource": {
              "isEnabled": true,
              "mode": "cors",
              "queryUrl": "rest/gaugeCharts2/response.json",
              "type": "rest"
            }
          }
        ]
      },
      "height": 800,
      "id": "simpleGaugeChart",
      "legend": {
        "mapping": {
          "items": [
            {
              "level": 0,
              "mapping": "$caption"
            }
          ]
        }
      },
      "tooltips": {
        "mapping": {
          "items": [
            {
              "level": 0,
              "mapping": {
                "items": [
                  {
                    "content": "{{$datum.category}} = {{$percentage}}",
                    "language": "en"
                  }
                ]
              }
            }
          ]
        }
      },
      "userResource": {
        "mode": "cors",
        "queryUrl": "rest/user/response.json"
      },
      "value": {
        "mapping": {
          "items": [
            {
              "level": 0,
              "mapping": "amount"
            }
          ]
        },
        "numberFormat": ".2f",
        "usePercentage": true
      }
    },
    "id": "simpleGaugeChart",
    "label": "simple",
    "size": 6,
    "type": "gaugeChart",
    "value": "{{simpleGaugeChart}}"
  },
  {
    "description": "simple line chart",
    "extraSettings": {
      "axes": {
        "x": {
          "scaleType": "time",
          "ticks": {
            "interval": {
              "items": [
                {
                  "level": 0,
                  "type": "monthsInYear"
                }
              ]
            }
          }
        }
      },
      "caption": {
        "dateFormat": "%Y-%m-%d",
        "dateParser": "%d.%m.%Y",
        "domain": {
          "items": [
            {
              "domain": "date",
              "level": 0
            }
          ]
        },
        "mapping": {
          "items": [
            {
              "level": 0,
              "mapping": "date"
            }
          ]
        },
        "textAnchor": "start"
      },
      "chartContainerType": "axes-chart-container",
      "chartType": "line-chart",
      "colors": {
        "mapping": {
          "items": [
            {
              "level": 0,
              "mapping": "$group"
            }
          ]
        }
      },
      "curvature": "linear",
      "dataResources": {
        "items": [
          {
            "level": 0,
            "dataResource": {
              "isEnabled": true,
              "mode": "cors",
              "queryUrl": "rest/lineCharts/response.json",
              "type": "rest"
            }
          },
          {
            "level": 0,
            "dataResource": {
              "isEnabled": true,
              "mode": "cors",
              "queryUrl": "rest/lineCharts2/response.json",
              "type": "rest"
            }
          }
        ]
      },
      "elements": {
        "strokes": {
          "color": "#000000",
          "customColorEnabled": false,
          "isVisible": true,
          "width": 3
        }
      },
      "group": {
        "mapping": {
          "items": [
            {
              "level": 0,
              "mapping": "category"
            }
          ]
        }
      },
      "id": "simpleLineChart",
      "legend": {
        "mapping": {
          "items": [
            {
              "level": 0,
              "mapping": "$group"
            }
          ]
        }
      },
      "tooltips": {
        "mapping": {
          "items": [
            {
              "level": 0,
              "mapping": {
                "items": [
                  {
                    "content": "'on {{$caption}}, {{$datum.parent.category}} had got the value {{$value}}'",
                    "language": "en"
                  },
                  {
                    "content": "'Am {{$caption}} hatte {{$datum.parent.category}} den Wert {{$value}}'",
                    "language": "de"
                  }
                ]
              }
            }
          ]
        }
      },
      "userResource": {
        "mode": "cors",
        "queryUrl": "rest/user/response.json"
      },
      "value": {
        "mapping": {
          "items": [
            {
              "level": 0,
              "mapping": "amount"
            }
          ]
        },
        "numberFormat": ".0f"
      }
    },
    "id": "simpleLineChart",
    "label": "simple",
    "size": 6,
    "type": "lineChart",
    "value": "{{simpleLineChart}}"
  },
  {
    "description": "simple pie chart",
    "extraSettings": {
      "caption": {
        "mapping": {
          "items": [
            {
              "level": 0,
              "mapping": "category"
            }
          ]
        }
      },
      "chartContainerType": "plain-chart-container",
      "chartType": "pie-chart",
      "dataResources": {
        "items": [
          {
            "level": 0,
            "dataResource": {
              "isEnabled": true,
              "mode": "cors",
              "queryUrl": "rest/pieCharts/response.json",
              "type": "rest"
            }
          },
          {
            "level": 0,
            "dataResource": {
              "isEnabled": true,
              "mode": "cors",
              "queryUrl": "rest/pieCharts2/response.json",
              "type": "rest"
            }
          }
        ]
      },
      "id": "simplePieChart",
      "innerRadius": 0.5,
      "legend": {
        "mapping": {
          "items": [
            {
              "level": 0,
              "mapping": "$caption"
            }
          ]
        }
      },
      "outerRadius": 4,
      "ticks": {
        "textAnchor": "start"
      },
      "userResource": {
        "mode": "cors",
        "queryUrl": "rest/user/response.json"
      },
      "value": {
        "angle": 0,
        "baseLine": "central",
        "dateFormat": "%Y-%m-%d",
        "dateParser": "%d.%m.%Y",
        "domain": {
          "items": [
            {
              "domain": "numeric",
              "level": 0
            }
          ]
        },
        "font": {
          "color": "#000000",
          "customColorEnabled": true,
          "family": "'Helvetica Neue',Helvetica,Arial,sans-serif",
          "size": 18
        },
        "isVisible": true,
        "mapping": {
          "items": [
            {
              "level": 0,
              "mapping": "amount"
            }
          ]
        },
        "numberFormat": ".0f",
        "position": "top",
        "textAnchor": "start",
        "timeFormat": "%H:%M:%S.%L",
        "usePercentage": false
      }
    },
    "id": "simplePieChart",
    "label": "simple",
    "size": 6,
    "type": "pieChart",
    "value": "{{simplePieChart}}"
  },
  {
    "description": "simple radar chart",
    "extraSettings": {
      "caption": {
        "mapping": {
          "items": [
            {
              "level": 0,
              "mapping": "category"
            }
          ]
        }
      },
      "chartContainerType": "plain-chart-container",
      "chartType": "radar-chart",
      "colors": {
        "mapping": {
          "items": [
            {
              "level": 0,
              "mapping": "$group"
            }
          ],
          "totalCount": 1
        }
      },
      "dataResources": {
        "items": [
          {
            "level": 0,
            "dataResource": {
              "isEnabled": true,
              "mode": "cors",
              "queryUrl": "rest/radarCharts/response.json",
              "type": "rest"
            }
          },
          {
            "level": 0,
            "dataResource": {
              "isEnabled": true,
              "mode": "cors",
              "queryUrl": "rest/radarCharts2/response.json",
              "type": "rest"
            }
          }
        ]
      },
      "id": "simpleRadarChart",
      "legend": {
        "mapping": {
          "items": [
            {
              "level": 0,
              "mapping": "$group"
            }
          ]
        }
      },
      "tooltips": {
        "mapping": {
          "items": [
            {
              "level": 0,
              "mapping": {
                "items": [
                  {
                    "content": "'{{$group}}: {{$caption}} has got the value {{$value}}'",
                    "language": "en"
                  },
                  {
                    "content": "'{{$group}}: {{$caption}} hat den Wert {{$value}}'",
                    "language": "de"
                  }
                ]
              }
            }
          ]
        }
      },
      "userResource": {
        "mode": "cors",
        "queryUrl": "rest/user/response.json"
      },
      "value": {
        "mapping": {
          "items": [
            {
              "level": 0,
              "mapping": "amount"
            }
          ]
        },
        "numberFormat": ".0f"
      }
    },
    "id": "simpleRadarChart",
    "label": "simple",
    "size": 6,
    "type": "radarChart",
    "value": "{{simpleRadarChart}}"
  },
  {
    "description": "simple scatter chart",
    "extraSettings": {
      "axes": {
        "z": {
          "mapping": {
            "items": [
              {
                "level": 0,
                "mapping": "$weight"
              }
            ]
          },
          "scaleType": "linear"
        }
      },
      "caption": {
        "mapping": {
          "items": [
            {
              "level": 0,
              "mapping": "category"
            }
          ]
        }
      },
      "chartContainerType": "axes-chart-container",
      "chartType": "scatter-chart",
      "dataResources": {
        "items": [
          {
            "level": 0,
            "dataResource": {
              "isEnabled": true,
              "mode": "cors",
              "queryUrl": "rest/scatterCharts/response.json",
              "type": "rest"
            }
          },
          {
            "level": 0,
            "dataResource": {
              "isEnabled": true,
              "mode": "cors",
              "queryUrl": "rest/scatterCharts2/response.json",
              "type": "rest"
            }
          }
        ]
      },
      "id": "simpleScatterChart",
      "legend": {
        "mapping": {
          "items": [
            {
              "level": 0,
              "mapping": "$caption"
            }
          ]
        }
      },
      "tooltips": {
        "mapping": {
          "items": [
            {
              "level": 0,
              "mapping": {
                "items": [
                  {
                    "content": "{{$caption}} = {{$value}} (weight: {{$weight}})",
                    "language": "en"
                  },
                  {
                    "content": "{{$caption}} = {{$value}} (weight: {{$weight}})",
                    "language": "de"
                  }
                ]
              }
            }
          ]
        }
      },
      "userResource": {
        "mode": "cors",
        "queryUrl": "rest/user/response.json"
      },
      "value": {
        "mapping": {
          "items": [
            {
              "level": 0,
              "mapping": "amount"
            }
          ]
        },
        "numberFormat": ".0f"
      }
    },
    "id": "simpleScatterChart",
    "label": "simple",
    "size": 6,
    "type": "scatterChart",
    "value": "{{simpleScatterChart}}"
  },
  {
    "description": "simple heatmap chart",
    "extraSettings": {
      "background": {
        "color": "#FFFFFF"
      },
      "caption": {
        "mapping": {
          "items": [
            {
              "level": 0,
              "mapping": "activityId"
            }
          ]
        }
      },
      "chartContainerType": "plain-chart-container",
      "chartType": "heatmap-chart",
      "colors": {
        "mapping": {
          "items": [
            {
              "level": 0,
              "mapping": "$value"
            }
          ]
        },
        "scheme": {
          "items": [
            {
              "interpolation": {
                "items": [
                  {
                    "color": "#9400D3",
                    "condition": "{{$value > 0}}",
                    "discriminator": "Fantastic"
                  },
                  {
                    "color": "#4B0082",
                    "condition": "{{$value > 0.1}}",
                    "discriminator": "Great"
                  },
                  {
                    "color": "#0000FF",
                    "condition": "{{$value > 0.3}}",
                    "discriminator": "Good"
                  },
                  {
                    "color": "#00FF00",
                    "condition": "{{$value > 0.5}}",
                    "discriminator": "Still all right"
                  },
                  {
                    "color": "#FFFF00",
                    "condition": "{{$value > 0.7}}",
                    "discriminator": "Need to track this"
                  },
                  {
                    "color": "#FF7F00",
                    "condition": "{{$value > 0.8}}",
                    "discriminator": "What's going on?"
                  },
                  {
                    "color": "#FF0000",
                    "condition": "{{$value > 0.9}}",
                    "discriminator": "Holy Moly!!!"
                  }
                ]
              },
              "level": 0,
              "scheme": "Threshold"
            }
          ]
        }
      },
      "dataResources": {
        "items": [
          {
            "level": 0,
            "dataResource": {
              "isEnabled": true,
              "mode": "cors",
              "queryUrl": "rest/heatmapCharts/response.json",
              "type": "rest"
            }
          },
          {
            "level": 1,
            "dataResource": {
              "isEnabled": true,
              "mode": "cors",
              "queryUrl": "rest/heatmapCharts2/response.json",
              "type": "rest"
            }
          }
        ]
      },
      "diagramResource": {
        "isEnabled": true,
        "mode": "cors",
        "queryUrl": "models/process.json",
        "type": "rest",
        "diagramType": "bpmn"
      },
      "group": {
        "mapping": {
          "items": [
            {
              "level": 0,
              "mapping": "queryName"
            }
          ]
        }
      },
      "id": "simpleHeatmapChart",
      "legend": {
        "mapping": {
          "items": [
            {
              "level": 0,
              "mapping": "$colors"
            }
          ]
        }
      },
      "margin": {
        "bottom": 50
      },
      "titles": {
        "angle": -90,
        "isEnabled": true,
        "isVisible": true,
        "mapping": {
          "items": [
            {
              "level": 0,
              "mapping": {
                "items": [
                  {
                    "language": "de",
                    "title": "Durchlaufzeiten von Aktivitäten in ms"
                  },
                  {
                    "language": "en",
                    "title": "Activity duration in milliseconds"
                  }
                ],
                "totalCount": 2
              }
            },
            {
              "level": 1,
              "mapping": {
                "items": [
                  {
                    "language": "de",
                    "title": "Summe von Aktivitäten"
                  },
                  {
                    "language": "en",
                    "title": "Activity sum"
                  }
                ],
                "totalCount": 2
              }
            }
          ],
          "totalCount": 1
        }
      },
      "tooltips": {
        "mapping": {
          "items": [
            {
              "level": 0,
              "mapping": {
                "items": [
                  {
                    "content": "{{$caption}} = {{$value}}",
                    "language": "en"
                  },
                  {
                    "content": "{{$caption}} = {{$value}}",
                    "language": "de"
                  }
                ]
              }
            }
          ]
        }
      },
      "userResource": {
        "mode": "cors",
        "queryUrl": "rest/user/response.json"
      },
      "value": {
        "mapping": {
          "items": [
            {
              "level": 0,
              "mapping": "stats.avg"
            },
            {
              "level": 1,
              "mapping": "stats.count"
            }
          ]
        },
        "numberFormat": ".1f",
        "usePercentage": true
      }
    },
    "id": "simpleHeatmapChart",
    "label": "simple",
    "size": 6,
    "type": "heatmapChart",
    "value": "{{simpleHeatmapChart}}"
  }
]
