[
  {
    "category": "lorem",
    "amount": 120,
    "group": "Group 1",
    "aggregations": [
      {
        "category": "lorem 1",
        "amount": 20,
        "group": "Group 1",
        "aggregations": []
      },
      {
        "category": "lorem 2",
        "amount": 30,
        "group": "Group 1",
        "aggregations": []
      },
      {
        "category": "lorem 3",
        "amount": 40,
        "group": "Group 1",
        "aggregations": []
      },
      {
        "category": "lorem 4",
        "amount": 25,
        "group": "Group 1",
        "aggregations": []
      },
      {
        "category": "lorem 5",
        "amount": 5,
        "group": "Group 1",
        "aggregations": []
      }
    ]
  },
  {
    "category": "ipsum",
    "amount": 87,
    "group": "Group 2",
    "aggregations": [
      {
        "category": "ipsum 1",
        "amount": 29,
        "group": "Group 2",
        "aggregations": []
      },
      {
        "category": "ipsum 2",
        "amount": 29,
        "group": "Group 2",
        "aggregations": []
      },
      {
        "category": "ipsum 3",
        "amount": 29,
        "group": "Group 2",
        "aggregations": []
      }
    ]
  },
  {
    "category": "dolor",
    "amount": 56,
    "group": "Group 2",
    "aggregations": [
      {
        "category": "dolor 1",
        "amount": 28,
        "group": "Group 2",
        "aggregations": []
      },
      {
        "category": "dolor 2",
        "amount": 28,
        "group": "Group 2",
        "aggregations": []
      }
    ]
  },
  {
    "category": "sit",
    "amount": 108,
    "group": "Group 2",
    "aggregations": [
      {
        "category": "sit 1",
        "amount": 54,
        "group": "Group 2",
        "aggregations": [
          {
            "category": "sit 1-1",
            "amount": 27,
            "group": "Group 2",
            "aggregations": [
              {
                "category": "sit 1-1-1",
                "amount": 13.5,
                "group": "Group 2",
                "aggregations": [
                  {
                    "category": "sit 1-1-1-1",
                    "amount": 6.75,
                    "group": "Group 2",
                    "aggregations": [
                      {
                        "category": "sit 1-1-1-1-1",
                        "amount": 3.375,
                        "group": "Group 2",
                        "aggregations": []
                      },
                      {
                        "category": "sit 1-1-1-1-2",
                        "amount": 3.375,
                        "group": "Group 2",
                        "aggregations": []
                      }
                    ]
                  },
                  {
                    "category": "sit 1-1-2-1",
                    "amount": 6.75,
                    "group": "Group 2",
                    "aggregations": []
                  }
                ]
              },
              {
                "category": "sit 1-1-2",
                "amount": 13.5,
                "group": "Group 2",
                "aggregations": []
              }
            ]
          },
          {
            "category": "sit 1-2",
            "amount": 27,
            "group": "Group 2",
            "aggregations": []
          }
        ]
      },
      {
        "category": "sit 2",
        "amount": 54,
        "group": "Group 2",
        "aggregations": [
          {
            "category": "sit 2-1",
            "amount": 27,
            "group": "Group 2",
            "aggregations": []
          },
          {
            "category": "sit 2-2",
            "amount": 27,
            "group": "Group 2",
            "aggregations": []
          }
        ]
      }
    ]
  },
  {
    "category": "amet",
    "amount": 52,
    "group": "Group 2",
    "aggregations": [
      {
        "category": "amet 1",
        "amount": 26,
        "group": "Group 2",
        "aggregations": []
      },
      {
        "category": "amet 2",
        "amount": 26,
        "group": "Group 2",
        "aggregations": []
      }
    ]
  },
  {
    "category": "consetetur",
    "amount": 50,
    "group": "Group 2",
    "aggregations": [
      {
        "category": "consetetur 1",
        "amount": 25,
        "group": "Group 2",
        "aggregations": []
      },
      {
        "category": "consetetur 2",
        "amount": 25,
        "group": "Group 2",
        "aggregations": []
      }
    ]
  },
  {
    "category": "sadipscing",
    "amount": 48,
    "group": "Group 3",
    "aggregations": [
      {
        "category": "sadipscing 1",
        "amount": 24,
        "group": "Group 3",
        "aggregations": []
      },
      {
        "category": "sadipscing 2",
        "amount": 24,
        "group": "Group 3",
        "aggregations": []
      }
    ]
  },
  {
    "category": "elitr",
    "amount": 46,
    "group": "Group 3",
    "aggregations": [
      {
        "category": "elitr 1",
        "amount": 23,
        "group": "Group 3",
        "aggregations": []
      },
      {
        "category": "elitr 2",
        "amount": 23,
        "group": "Group 3",
        "aggregations": []
      }
    ]
  },
  {
    "category": "sed",
    "amount": 44,
    "group": "Group 3",
    "aggregations": [
      {
        "category": "sed 1",
        "amount": 22,
        "group": "Group 3",
        "aggregations": []
      },
      {
        "category": "sed 2",
        "amount": 22,
        "group": "Group 3",
        "aggregations": []
      }
    ]
  },
  {
    "category": "diam",
    "amount": 42,
    "group": "Group 3",
    "aggregations": [
      {
        "category": "diam 1",
        "amount": 21,
        "group": "Group 3",
        "aggregations": []
      },
      {
        "category": "diam 2",
        "amount": 21,
        "group": "Group 3",
        "aggregations": []
      }
    ]
  },
  {
    "category": "nonumy",
    "amount": 40,
    "group": "Group 3",
    "aggregations": [
      {
        "category": "nonumy 1",
        "amount": 20,
        "group": "Group 3",
        "aggregations": [
          {
            "category": "nonumy 1-1",
            "amount": 10,
            "group": "Group 3",
            "aggregations": []
          },
          {
            "category": "nonumy 1-2",
            "amount": 10,
            "group": "Group 3",
            "aggregations": []
          }
        ]
      },
      {
        "category": "nonumy 2",
        "amount": 20,
        "group": "Group 3",
        "aggregations": []
      }
    ]
  },
  {
    "category": "eirmod",
    "amount": 38,
    "group": "Group 3",
    "aggregations": [
      {
        "category": "eirmod 1",
        "amount": 19,
        "group": "Group 3",
        "aggregations": []
      },
      {
        "category": "eirmod 2",
        "amount": 19,
        "group": "Group 3",
        "aggregations": []
      }
    ]
  }
]