[
  {
    "description": "legend top pie chart",
    "extraSettings": {
      "caption": {
        "mapping": {
          "items": [
            {
              "level": 0,
              "mapping": "category"
            }
          ]
        },
        "stringFormats": {
          "items": [
            {
              "replacePattern": "$1...",
              "searchPattern": "^(.{0,5}).*$"
            }
          ],
          "totalCount": 1
        }
      },
      "chartContainerType": "plain-chart-container",
      "chartType": "pie-chart",
      "dataResources": {
        "items": [
          {
            "level": 0,
            "dataResource": {
              "isEnabled": true,
              "mode": "cors",
              "queryUrl": "rest/pieCharts/response.json",
              "type": "rest"
            }
          },
          {
            "level": 0,
            "dataResource": {
              "isEnabled": true,
              "mode": "cors",
              "queryUrl": "rest/pieCharts2/response.json",
              "type": "rest"
            }
          }
        ]
      },
      "id": "legendTopPieChart",
      "legend": {
        "horizontalAlignment": "center",
        "mapping": {
          "items": [
            {
              "level": 0,
              "mapping": "$caption"
            }
          ]
        },
        "orient": "top",
        "verticalAlignment": "top"
      },
      "margin": {
        "top": 200
      },
      "ticks": {
        "textAnchor": "start"
      },
      "userResource": {
        "mode": "cors",
        "queryUrl": "rest/user/response.json"
      },
      "value": {
        "angle": 0,
        "baseLine": "central",
        "dateFormat": "%Y-%m-%d",
        "dateParser": "%d.%m.%Y",
        "domain": {
          "items": [
            {
              "domain": "numeric",
              "level": 0
            }
          ]
        },
        "font": {
          "color": "#000000",
          "customColorEnabled": true,
          "family": "'Helvetica Neue',Helvetica,Arial,sans-serif",
          "size": 18
        },
        "isVisible": true,
        "mapping": {
          "items": [
            {
              "level": 0,
              "mapping": "amount"
            }
          ]
        },
        "numberFormat": ".0f",
        "position": "top",
        "textAnchor": "start",
        "timeFormat": "%H:%M:%S.%L",
        "usePercentage": false
      }
    },
    "id": "legendTopPieChart",
    "label": "legend top",
    "size": 8,
    "type": "pieChart",
    "value": "{{legendTopPieChart}}"
  }
]
