[
  {
    "description": "custom colors scatter chart",
    "extraSettings": {
      "axes": {
        "z": {
          "mapping": {
            "items": [
              {
                "level": 0,
                "mapping": "$weight"
              }
            ]
          },
          "scaleType": "linear"
        }
      },
      "caption": {
        "mapping": {
          "items": [
            {
              "level": 0,
              "mapping": "category"
            }
          ]
        }
      },
      "chartContainerType": "axes-chart-container",
      "chartType": "scatter-chart",
      "colors": {
        "scheme": {
          "items": [
            {
              "interpolation": {
                "items": [
                  {
                    "color": "#ff0000"
                  },
                  {
                    "color": "#00ff00"
                  },
                  {
                    "color": "#0000ff"
                  },
                  {
                    "color": "#ff00ff"
                  },
                  {
                    "color": "#ffff00"
                  },
                  {
                    "color": "#00ffff"
                  }
                ]
              },
              "level": 0,
              "scheme": "Custom"
            }
          ]
        }
      },
      "dataResources": {
        "items": [
          {
            "level": 0,
            "dataResource": {
              "isEnabled": true,
              "mode": "cors",
              "queryUrl": "rest/scatterCharts/response.json",
              "type": "rest"
            }
          },
          {
            "level": 0,
            "dataResource": {
              "isEnabled": true,
              "mode": "cors",
              "queryUrl": "rest/scatterCharts2/response.json",
              "type": "rest"
            }
          }
        ]
      },
      "id": "customColorsScatterChart",
      "legend": {
        "mapping": {
          "items": [
            {
              "level": 0,
              "mapping": "$group"
            }
          ]
        }
      },
      "tooltips": {
        "mapping": {
          "items": [
            {
              "level": 0,
              "mapping": {
                "items": [
                  {
                    "content": "{{$caption}} = {{$value}} (weight: {{$weight}})",
                    "language": "en"
                  },
                  {
                    "content": "{{$caption}} = {{$value}} (weight: {{$weight}})",
                    "language": "de"
                  }
                ]
              }
            }
          ]
        }
      },
      "userResource": {
        "mode": "cors",
        "queryUrl": "rest/user/response.json"
      },
      "value": {
        "mapping": {
          "items": [
            {
              "level": 0,
              "mapping": "amount"
            }
          ]
        },
        "numberFormat": ".0f"
      }
    },
    "id": "customColorsScatterChart",
    "label": "custom colors",
    "type": "scatterChart",
    "value": "{{customColorsScatterChart}}"
  }
]
