[
  {
    "caption": "lorem",
    "value": 120,
    "geographicalArea": "nz",
    "group": "Group 1",
    "aggregations": [
      {
        "caption": "lorem 1",
        "value": 20,
        "geographicalArea": "nz",
        "group": "Group 1",
        "aggregations": [],
        "date": "21.01.2016"
      },
      {
        "caption": "lorem 2",
        "value": 30,
        "geographicalArea": "nz",
        "group": "Group 2",
        "aggregations": [],
        "date": "26.02.2016"
      },
      {
        "caption": "lorem 3",
        "value": 40,
        "geographicalArea": "nz",
        "group": "Group 3",
        "aggregations": [],
        "date": "07.03.2016"
      },
      {
        "caption": "lorem 4",
        "value": 25,
        "geographicalArea": "nz",
        "group": "Group 4",
        "aggregations": [],
        "date": "30.03.2016"
      },
      {
        "caption": "lorem 5",
        "value": 5,
        "geographicalArea": "nz",
        "group": "Group 5",
        "aggregations": [],
        "date": "22.04.2016"
      }
    ],
    "date": "21.01.2016"
  },
  {
    "caption": "simbalabim",
    "value": 120,
    "geographicalArea": "au",
    "group": "Group 1",
    "aggregations": [],
    "date": "26.02.2016"
  },
  {
    "caption": "ipsum",
    "value": 87,
    "geographicalArea": "pg",
    "group": "Group 1",
    "aggregations": [
      {
        "caption": "ipsum 1",
        "value": 29,
        "geographicalArea": "pg",
        "group": "Group 1",
        "aggregations": [],
        "date": "07.03.2016"
      },
      {
        "caption": "ipsum 2",
        "value": 29,
        "geographicalArea": "pg",
        "group": "Group 2",
        "aggregations": [],
        "date": "28.03.2016"
      },
      {
        "caption": "ipsum 3",
        "value": 29,
        "geographicalArea": "pg",
        "group": "Group 3",
        "aggregations": [],
        "date": "01.04.2016"
      }
    ],
    "date": "07.03.2016"
  },
  {
    "caption": "dolor",
    "value": 56,
    "geographicalArea": "tk",
    "group": "Group 1",
    "aggregations": [
      {
        "caption": "dolor 1",
        "value": 28,
        "geographicalArea": "tk",
        "group": "Group 1",
        "aggregations": [],
        "date": "30.03.2016"
      },
      {
        "caption": "dolor 2",
        "value": 28,
        "geographicalArea": "tk",
        "group": "Group 2",
        "aggregations": [],
        "date": "01.04.2016"
      }
    ],
    "date": "30.03.2016"
  },
  {
    "caption": "sit",
    "value": 108,
    "geographicalArea": "nu",
    "group": "Group 1",
    "aggregations": [
      {
        "caption": "sit 1",
        "value": 54,
        "geographicalArea": "nu",
        "group": "Group 1",
        "aggregations": [
          {
            "caption": "sit 1-1",
            "value": 27,
            "geographicalArea": "nu",
            "group": "Group 1",
            "aggregations": [
              {
                "caption": "sit 1-1-1",
                "value": 13.5,
                "geographicalArea": "nu",
                "group": "Group 1",
                "aggregations": [
                  {
                    "caption": "sit 1-1-1-1",
                    "value": 6.75,
                    "geographicalArea": "tn",
                    "group": "Group 1",
                    "aggregations": [
                      {
                        "caption": "sit 1-1-1-1-1",
                        "value": 13.5,
                        "geographicalArea": "tn",
                        "group": "Group 1",
                        "aggregations": [],
                        "date": "22.04.2016"
                      },
                      {
                        "caption": "sit 1-1-1-1-2",
                        "value": 13.5,
                        "geographicalArea": "tn",
                        "group": "Group 2",
                        "aggregations": [],
                        "date": "04.06.2016"
                      }
                    ],
                    "date": "22.04.2016"
                  },
                  {
                    "caption": "sit 1-1-2-1",
                    "value": 6.75,
                    "geographicalArea": "tn",
                    "group": "Group 2",
                    "aggregations": [],
                    "date": "04.06.2016"
                  }
                ],
                "date": "22.04.2016"
              },
              {
                "caption": "sit 1-1-2",
                "value": 13.5,
                "geographicalArea": "nu",
                "group": "Group 2",
                "aggregations": [],
                "date": "04.06.2016"
              }
            ],
            "date": "22.04.2016"
          },
          {
            "caption": "sit 1-2",
            "value": 27,
            "geographicalArea": "nu",
            "group": "Group 2",
            "aggregations": [],
            "date": "22.04.2016"
          }
        ],
        "date": "22.04.2016"
      },
      {
        "caption": "sit 2",
        "value": 54,
        "geographicalArea": "nu",
        "group": "Group 1",
        "aggregations": [
          {
            "caption": "sit 2-1",
            "value": 27,
            "geographicalArea": "nu",
            "group": "Group 1",
            "aggregations": [],
            "date": "22.04.2016"
          },
          {
            "caption": "sit 2-2",
            "value": 27,
            "geographicalArea": "nu",
            "group": "Group 2",
            "aggregations": [],
            "date": "04.06.2016"
          }
        ],
        "date": "22.04.2016"
      }
    ],
    "date": "22.04.2016"
  },
  {
    "caption": "amet",
    "value": 52,
    "geographicalArea": "fj",
    "group": "Group 1",
    "aggregations": [
      {
        "caption": "amet 1",
        "value": 26,
        "geographicalArea": "fj",
        "group": "Group 1",
        "aggregations": [],
        "date": "18.07.2016"
      },
      {
        "caption": "amet 2",
        "value": 26,
        "geographicalArea": "fj",
        "group": "Group 2",
        "aggregations": [],
        "date": "02.09.2016"
      }
    ],
    "date": "18.07.2016"
  },
  {
    "caption": "consetetur",
    "value": 50,
    "geographicalArea": "ws",
    "group": "Group 1",
    "aggregations": [
      {
        "caption": "consetetur 1",
        "value": 25,
        "geographicalArea": "ws",
        "group": "Group 1",
        "aggregations": [],
        "date": "10.08.2016"
      },
      {
        "caption": "consetetur 2",
        "value": 25,
        "geographicalArea": "ws",
        "group": "Group 2",
        "aggregations": [],
        "date": "15.08.2016"
      }
    ],
    "date": "10.08.2016"
  },
  {
    "caption": "sadipscing",
    "value": 48,
    "geographicalArea": "fm",
    "group": "Group 1",
    "aggregations": [
      {
        "caption": "sadipscing 1",
        "value": 24,
        "geographicalArea": "fm",
        "group": "Group 2",
        "aggregations": [],
        "date": "12.08.2016"
      },
      {
        "caption": "sadipscing 2",
        "value": 24,
        "geographicalArea": "fm",
        "group": "Group 1",
        "aggregations": [],
        "date": "02.09.2016"
      }
    ],
    "date": "12.08.2016"
  },
  {
    "caption": "elitr",
    "value": 46,
    "geographicalArea": "cc",
    "group": "Group 1",
    "aggregations": [
      {
        "caption": "elitr 1",
        "value": 23,
        "geographicalArea": "cc",
        "group": "Group 1",
        "aggregations": [],
        "date": "27.08.2016"
      },
      {
        "caption": "elitr 2",
        "value": 23,
        "geographicalArea": "cc",
        "group": "Group 2",
        "aggregations": [],
        "date": "25.09.2016"
      }
    ],
    "date": "27.08.2016"
  },
  {
    "caption": "sed",
    "value": 44,
    "geographicalArea": "mp",
    "group": "Group 1",
    "aggregations": [
      {
        "caption": "sed 1",
        "value": 22,
        "geographicalArea": "mp",
        "group": "Group 1",
        "aggregations": [],
        "date": "08.09.2016"
      },
      {
        "caption": "sed 2",
        "value": 22,
        "geographicalArea": "mp",
        "group": "Group 2",
        "aggregations": [],
        "date": "25.09.2016"
      }
    ],
    "date": "08.09.2016"
  },
  {
    "caption": "diam",
    "value": 42,
    "geographicalArea": "to",
    "group": "Group 1",
    "aggregations": [
      {
        "caption": "diam 1",
        "value": 21,
        "geographicalArea": "to",
        "group": "Group 1",
        "aggregations": [],
        "date": "09.09.2016"
      },
      {
        "caption": "diam 2",
        "value": 21,
        "geographicalArea": "to",
        "group": "Group 2",
        "aggregations": [],
        "date": "10.10.2016"
      }
    ],
    "date": "09.09.2016"
  },
  {
    "caption": "nonumy",
    "value": 40,
    "geographicalArea": "to",
    "group": "Group 1",
    "aggregations": [
      {
        "caption": "nonumy 1",
        "value": 20,
        "geographicalArea": "to",
        "group": "Group 1",
        "aggregations": [
          {
            "caption": "nonumy 1-1",
            "value": 10,
            "geographicalArea": "to",
            "group": "Group 1",
            "aggregations": [],
            "date": "18.12.2016"
          },
          {
            "caption": "nonumy 1-2",
            "value": 10,
            "geographicalArea": "to",
            "group": "Group 2",
            "aggregations": [],
            "date": "05.01.2017"
          }
        ],
        "date": "18.12.2016"
      },
      {
        "caption": "nonumy 2",
        "value": 20,
        "geographicalArea": "to",
        "group": "Group 1",
        "aggregations": [],
        "date": "24.11.2016"
      }
    ],
    "date": "18.12.2016"
  },
  {
    "caption": "eirmod",
    "value": 38,
    "geographicalArea": "pw",
    "group": "Group 1",
    "aggregations": [
      {
        "caption": "eirmod 1",
        "value": 19,
        "geographicalArea": "pw",
        "group": "Group 1",
        "aggregations": [],
        "date": "21.12.2016"
      },
      {
        "caption": "eirmod 2",
        "value": 19,
        "geographicalArea": "pw",
        "group": "Group 2",
        "aggregations": [],
        "date": "12.01.2017"
      }
    ],
    "date": "21.12.2016"
  },
  {
    "caption": "tempor",
    "value": 108,
    "geographicalArea": "gu",
    "group": "Group 1",
    "aggregations": [
      {
        "caption": "tempor 1",
        "value": 27,
        "geographicalArea": "gu",
        "group": "Group 1",
        "aggregations": [],
        "date": "27.01.2017"
      },
      {
        "caption": "tempor 2",
        "value": 9,
        "geographicalArea": "gu",
        "group": "Group 2",
        "aggregations": [],
        "date": "16.02.2017"
      },
      {
        "caption": "tempor 3",
        "value": 18,
        "geographicalArea": "gu",
        "group": "Group 3",
        "aggregations": [
          {
            "caption": "tempor 3-1",
            "value": 3,
            "geographicalArea": "gu",
            "group": "Group 1",
            "aggregations": [],
            "date": "23.02.2017"
          },
          {
            "caption": "tempor 3-2",
            "value": 3,
            "geographicalArea": "gu",
            "group": "Group 2",
            "aggregations": [],
            "date": "28.02.2017"
          },
          {
            "caption": "tempor 3-3",
            "value": 3,
            "geographicalArea": "gu",
            "group": "Group 3",
            "aggregations": [],
            "date": "16.03.2017"
          },
          {
            "caption": "tempor 3-4",
            "value": 3,
            "geographicalArea": "gu",
            "group": "Group 4",
            "aggregations": [],
            "date": "16.05.2017"
          },
          {
            "caption": "tempor 3-5",
            "value": 3,
            "geographicalArea": "gu",
            "group": "Group 5",
            "aggregations": [],
            "date": "07.06.2017"
          },
          {
            "caption": "tempor 3-6",
            "value": 3,
            "geographicalArea": "gu",
            "group": "Group 6",
            "aggregations": [],
            "date": "08.06.2017"
          }
        ],
        "date": "23.02.2017"
      },
      {
        "caption": "tempor 4",
        "value": 18,
        "geographicalArea": "gu",
        "group": "Group 4",
        "aggregations": [],
        "date": "28.02.2017"
      },
      {
        "caption": "tempor 5",
        "value": 9,
        "geographicalArea": "gu",
        "group": "Group 5",
        "aggregations": [],
        "date": "16.03.2017"
      },
      {
        "caption": "tempor 6",
        "value": 27,
        "geographicalArea": "gu",
        "group": "Group 6",
        "aggregations": [],
        "date": "16.05.2017"
      }
    ],
    "date": "27.01.2017"
  },
  {
    "caption": "invidunt",
    "value": 34,
    "geographicalArea": "tv",
    "group": "Group 1",
    "aggregations": [
      {
        "caption": "invidunt 1",
        "value": 17,
        "geographicalArea": "tv",
        "group": "Group 1",
        "aggregations": [],
        "date": "28.02.2017"
      },
      {
        "caption": "invidunt 2",
        "value": 17,
        "geographicalArea": "tv",
        "group": "Group 2",
        "aggregations": [],
        "date": "27.01.2017"
      }
    ],
    "date": "28.02.2017"
  },
  {
    "caption": "takimata",
    "value": 32,
    "geographicalArea": "vu",
    "group": "Group 1",
    "aggregations": [
      {
        "caption": "takimata 1",
        "value": 16,
        "geographicalArea": "vu",
        "group": "Group 1",
        "aggregations": [],
        "date": "18.03.2017"
      },
      {
        "caption": "takimata 2",
        "value": 16,
        "geographicalArea": "vu",
        "group": "Group 2",
        "aggregations": [],
        "date": "21.03.2017"
      }
    ],
    "date": "18.03.2017"
  },
  {
    "caption": "labore",
    "value": 30,
    "geographicalArea": "ki",
    "group": "Group 1",
    "aggregations": [
      {
        "caption": "labore 1",
        "value": 15,
        "geographicalArea": "ki",
        "group": "Group 1",
        "aggregations": [],
        "date": "06.04.2017"
      },
      {
        "caption": "labore 2",
        "value": 15,
        "geographicalArea": "ki",
        "group": "Group 2",
        "aggregations": [],
        "date": "06.05.2017"
      }
    ],
    "date": "06.04.2017"
  },
  {
    "caption": "gubergren",
    "value": 28,
    "geographicalArea": "pf",
    "group": "Group 1",
    "aggregations": [
      {
        "caption": "gubergren 1",
        "value": 14,
        "geographicalArea": "pf",
        "group": "Group 1",
        "aggregations": [],
        "date": "14.04.2017"
      },
      {
        "caption": "gubergren 2",
        "value": 14,
        "geographicalArea": "pf",
        "group": "Group 2",
        "aggregations": [],
        "date": "02.06.2017"
      }
    ],
    "date": "14.04.2017"
  },
  {
    "caption": "sea",
    "value": 26,
    "geographicalArea": "nf",
    "group": "Group 1",
    "aggregations": [
      {
        "caption": "sea 1",
        "value": 13,
        "geographicalArea": "nf",
        "group": "Group 1",
        "aggregations": [],
        "date": "08.05.2017"
      },
      {
        "caption": "sea 2",
        "value": 13,
        "geographicalArea": "nf",
        "group": "Group 2",
        "aggregations": [],
        "date": "08.06.2017"
      }
    ],
    "date": "08.05.2017"
  },
  {
    "caption": "magna",
    "value": 112,
    "geographicalArea": "ck",
    "group": "Group 1",
    "aggregations": [
      {
        "caption": "magna 1",
        "value": 56,
        "geographicalArea": "ck",
        "group": "Group 1",
        "aggregations": [],
        "date": "10.06.2017"
      },
      {
        "caption": "magna 2",
        "value": 56,
        "geographicalArea": "ck",
        "group": "Group 2",
        "aggregations": [],
        "date": "11.06.2017"
      }
    ],
    "date": "10.06.2017"
  },
  {
    "caption": "aliquyam",
    "value": 24,
    "geographicalArea": "pn",
    "group": "Group 1",
    "aggregations": [
      {
        "caption": "aliquyam 1",
        "value": 12,
        "geographicalArea": "pn",
        "group": "Group 1",
        "aggregations": [],
        "date": "14.06.2017"
      },
      {
        "caption": "aliquyam 2",
        "value": 12,
        "geographicalArea": "pn",
        "group": "Group 2",
        "aggregations": [],
        "date": "13.07.2017"
      }
    ],
    "date": "14.06.2017"
  },
  {
    "caption": "erat",
    "value": 22,
    "geographicalArea": "mh",
    "group": "Group 1",
    "aggregations": [
      {
        "caption": "erat 1",
        "value": 11,
        "geographicalArea": "mh",
        "group": "Group 1",
        "aggregations": [],
        "date": "29.06.2017"
      },
      {
        "caption": "erat 2",
        "value": 11,
        "geographicalArea": "mh",
        "group": "Group 2",
        "aggregations": [],
        "date": "15.07.2017"
      }
    ],
    "date": "29.06.2017"
  },
  {
    "caption": "sanctus",
    "value": 20,
    "geographicalArea": "sb",
    "group": "Group 1",
    "aggregations": [
      {
        "caption": "sanctus 1",
        "value": 10,
        "geographicalArea": "sb",
        "group": "Group 1",
        "aggregations": [],
        "date": "06.10.2017"
      },
      {
        "caption": "sanctus 2",
        "value": 10,
        "geographicalArea": "sb",
        "group": "Group 2",
        "aggregations": [],
        "date": "13.07.2017"
      }
    ],
    "date": "06.10.2017"
  },
  {
    "caption": "rebum",
    "value": 18,
    "geographicalArea": "wf",
    "group": "Group 1",
    "aggregations": [
      {
        "caption": "rebum 1",
        "value": 9,
        "geographicalArea": "wf",
        "group": "Group 1",
        "aggregations": [],
        "date": "26.10.2017"
      },
      {
        "caption": "rebum 2",
        "value": 9,
        "geographicalArea": "wf",
        "group": "Group 2",
        "aggregations": [],
        "date": "03.11.2017"
      }
    ],
    "date": "26.10.2017"
  },
  {
    "caption": "voluptua",
    "value": 16,
    "geographicalArea": "nr",
    "group": "Group 1",
    "aggregations": [
      {
        "caption": "voluptua 1",
        "value": 8,
        "geographicalArea": "nr",
        "group": "Group 1",
        "aggregations": [],
        "date": "05.12.2017"
      },
      {
        "caption": "voluptua 2",
        "value": 8,
        "geographicalArea": "nr",
        "group": "Group 2",
        "aggregations": [],
        "date": "06.12.2017"
      }
    ],
    "date": "05.12.2017"
  }
]
