[
  {
    "description": "colors by groups radar chart",
    "extraSettings": {
      "caption": {
        "mapping": {
          "items": [
            {
              "level": 0,
              "mapping": "category"
            }
          ]
        }
      },
      "chartContainerType": "plain-chart-container",
      "chartType": "radar-chart",
      "colors": {
        "mapping": {
          "items": [
            {
              "level": 0,
              "mapping": "$group"
            }
          ]
        },
        "scheme": {
          "items": [
            {
              "interpolation": {
                "items": [
                  {
                    "color": "#ff0000",
                    "discriminator": "Group 1"
                  },
                  {
                    "color": "#00ff00",
                    "discriminator": "Group 2"
                  },
                  {
                    "color": "#0000ff",
                    "discriminator": "Group 3"
                  },
                  {
                    "color": "#ff00ff",
                    "discriminator": "Group 4"
                  },
                  {
                    "color": "#ffff00",
                    "discriminator": "Group 5"
                  },
                  {
                    "color": "#00ffff",
                    "discriminator": "Group 6"
                  }
                ]
              },
              "level": 0,
              "scheme": "Grouped"
            }
          ]
        }
      },
      "dataResources": {
        "items": [
          {
            "level": 0,
            "dataResource": {
              "isEnabled": true,
              "mode": "cors",
              "queryUrl": "rest/radarCharts/response.json",
              "type": "rest"
            }
          },
          {
            "level": 0,
            "dataResource": {
              "isEnabled": true,
              "mode": "cors",
              "queryUrl": "rest/radarCharts2/response.json",
              "type": "rest"
            }
          }
        ]
      },
      "id": "colorsByGroupsRadarChart",
      "legend": {
        "mapping": {
          "items": [
            {
              "level": 0,
              "mapping": "$group"
            }
          ]
        }
      },
      "tooltips": {
        "mapping": {
          "items": [
            {
              "level": 0,
              "mapping": {
                "items": [
                  {
                    "content": "'{{$group}}: {{$caption}} has got the value {{$value}}'",
                    "language": "en"
                  },
                  {
                    "content": "'{{$group}}: {{$caption}} hat den Wert {{$value}}'",
                    "language": "de"
                  }
                ]
              }
            }
          ]
        },
        "margin": {
          "bottom": 10,
          "left": 10,
          "right": 10,
          "top": 10
        }
      },
      "userResource": {
        "mode": "cors",
        "queryUrl": "rest/user/response.json"
      },
      "value": {
        "mapping": {
          "items": [
            {
              "level": 0,
              "mapping": "amount"
            }
          ]
        },
        "numberFormat": ".0f"
      }
    },
    "id": "colorsByGroupsRadarChart",
    "label": "colors by groups",
    "type": "radarChart",
    "value": "{{colorsByGroupsRadarChart}}"
  }
]
