[
  {
    "description": "colors by thresholds gauge chart",
    "extraSettings": {
      "caption": {
        "mapping": {
          "items": [
            {
              "level": 0,
              "mapping": "category"
            }
          ]
        }
      },
      "chartContainerType": "plain-chart-container",
      "chartType": "gauge-chart",
      "colors": {
        "mapping": {
          "items": [
            {
              "level": 0,
              "mapping": "$value"
            }
          ]
        },
        "scheme": {
          "items": [
            {
              "interpolation": {
                "items": [
                  {
                    "color": "#339966",
                    "condition": "{{$value > 100}}",
                    "discriminator": "Fantastic"
                  },
                  {
                    "color": "#53C653",
                    "condition": "{{$value > 80}}",
                    "discriminator": "Great"
                  },
                  {
                    "color": "#FFCC00",
                    "condition": "{{$value > 60}}",
                    "discriminator": "Still all right"
                  },
                  {
                    "color": "#FF8533",
                    "condition": "{{$value > 40}}",
                    "discriminator": "Uh-oh"
                  },
                  {
                    "color": "#CC0000",
                    "condition": "{{$value > 20}}",
                    "discriminator": "What's going on?"
                  }
                ]
              },
              "level": 0,
              "scheme": "Threshold"
            }
          ]
        }
      },
      "dataResources": {
        "items": [
          {
            "level": 0,
            "dataResource": {
              "isEnabled": true,
              "mode": "cors",
              "queryUrl": "rest/gaugeCharts/response.json",
              "type": "rest"
            }
          },
          {
            "level": 0,
            "dataResource": {
              "isEnabled": true,
              "mode": "cors",
              "queryUrl": "rest/gaugeCharts2/response.json",
              "type": "rest"
            }
          }
        ]
      },
      "id": "colorsByThresholdsGaugeChart",
      "legend": {
        "mapping": {
          "items": [
            {
              "level": 0,
              "mapping": "colors"
            }
          ]
        }
      },
      "margin": {
        "bottom": 100
      },
      "tooltips": {
        "mapping": {
          "items": [
            {
              "level": 0,
              "mapping": {
                "items": [
                  {
                    "content": "{{$datum.category}} = {{$percentage}}",
                    "language": "en"
                  }
                ]
              }
            }
          ]
        }
      },
      "userResource": {
        "mode": "cors",
        "queryUrl": "rest/user/response.json"
      },
      "value": {
        "mapping": {
          "items": [
            {
              "level": 0,
              "mapping": "amount"
            }
          ]
        },
        "numberFormat": ".2f",
        "usePercentage": true
      }
    },
    "id": "colorsByThresholdsGaugeChart",
    "label": "colors by thresholds",
    "type": "gaugeChart",
    "value": "{{colorsByThresholdsGaugeChart}}"
  }
]
