[
  {
    "caption": "lorem",
    "value": 120,
    "geographicalArea": "is",
    "aggregations": [
      {
        "caption": "lorem 1",
        "value": 20,
        "geographicalArea": "is",
        "aggregations": [],
        "date": "21.01.2016"
      },
      {
        "caption": "lorem 2",
        "value": 30,
        "geographicalArea": "is",
        "aggregations": [],
        "date": "26.02.2016"
      },
      {
        "caption": "lorem 3",
        "value": 40,
        "geographicalArea": "is",
        "aggregations": [],
        "date": "07.03.2016"
      },
      {
        "caption": "lorem 4",
        "value": 25,
        "geographicalArea": "is",
        "aggregations": [],
        "date": "30.03.2016"
      },
      {
        "caption": "lorem 5",
        "value": 5,
        "geographicalArea": "is",
        "aggregations": [],
        "date": "22.04.2016"
      }
    ],
    "date": "21.01.2016"
  },
  {
    "caption": "simbalabim",
    "value": 120,
    "geographicalArea": "pt",
    "aggregations": [],
    "date": "26.02.2016"
  },
  {
    "caption": "ipsum",
    "value": 87,
    "geographicalArea": "ma",
    "aggregations": [
      {
        "caption": "ipsum 1",
        "value": 29,
        "geographicalArea": "ma",
        "aggregations": [],
        "date": "07.03.2016"
      },
      {
        "caption": "ipsum 2",
        "value": 29,
        "geographicalArea": "ma",
        "aggregations": [],
        "date": "28.03.2016"
      },
      {
        "caption": "ipsum 3",
        "value": 29,
        "geographicalArea": "ma",
        "aggregations": [],
        "date": "01.04.2016"
      }
    ],
    "date": "07.03.2016"
  },
  {
    "caption": "dolor",
    "value": 56,
    "geographicalArea": "es",
    "aggregations": [
      {
        "caption": "dolor 1",
        "value": 28,
        "geographicalArea": "es",
        "aggregations": [],
        "date": "30.03.2016"
      },
      {
        "caption": "dolor 2",
        "value": 28,
        "geographicalArea": "es",
        "aggregations": [],
        "date": "01.04.2016"
      }
    ],
    "date": "30.03.2016"
  },
  {
    "caption": "sit",
    "value": 108,
    "geographicalArea": "tn",
    "aggregations": [
      {
        "caption": "sit 1",
        "value": 54,
        "geographicalArea": "tn",
        "aggregations": [
          {
            "caption": "sit 1-1",
            "value": 27,
            "geographicalArea": "tn",
            "aggregations": [
              {
                "caption": "sit 1-1-1",
                "value": 13.5,
                "geographicalArea": "tn",
                "aggregations": [
                  {
                    "caption": "sit 1-1-1-1",
                    "value": 6.75,
                    "geographicalArea": "tn",
                    "group": "Group 1",
                    "aggregations": [
                      {
                        "caption": "sit 1-1-1-1-1",
                        "value": 13.5,
                        "geographicalArea": "tn",
                        "group": "Group 1",
                        "aggregations": [],
                        "date": "22.04.2016"
                      },
                      {
                        "caption": "sit 1-1-1-1-2",
                        "value": 13.5,
                        "geographicalArea": "tn",
                        "group": "Group 2",
                        "aggregations": [],
                        "date": "04.06.2016"
                      }
                    ],
                    "date": "22.04.2016"
                  },
                  {
                    "caption": "sit 1-1-2-1",
                    "value": 6.75,
                    "geographicalArea": "tn",
                    "group": "Group 2",
                    "aggregations": [],
                    "date": "04.06.2016"
                  }
                ],
                "date": "22.04.2016"
              },
              {
                "caption": "sit 1-1-2",
                "value": 13.5,
                "geographicalArea": "tn",
                "aggregations": [],
                "date": "04.06.2016"
              }
            ],
            "date": "22.04.2016"
          },
          {
            "caption": "sit 1-2",
            "value": 27,
            "geographicalArea": "tn",
            "aggregations": [],
            "date": "22.04.2016"
          }
        ],
        "date": "22.04.2016"
      },
      {
        "caption": "sit 2",
        "value": 54,
        "geographicalArea": "tn",
        "aggregations": [
          {
            "caption": "sit 2-1",
            "value": 27,
            "geographicalArea": "tn",
            "aggregations": [],
            "date": "22.04.2016"
          },
          {
            "caption": "sit 2-2",
            "value": 27,
            "geographicalArea": "tn",
            "aggregations": [],
            "date": "04.06.2016"
          }
        ],
        "date": "22.04.2016"
      }
    ],
    "date": "22.04.2016"
  },
  {
    "caption": "amet",
    "value": 52,
    "geographicalArea": "dz",
    "aggregations": [
      {
        "caption": "amet 1",
        "value": 26,
        "geographicalArea": "dz",
        "aggregations": [],
        "date": "18.07.2016"
      },
      {
        "caption": "amet 2",
        "value": 26,
        "geographicalArea": "dz",
        "aggregations": [],
        "date": "02.09.2016"
      }
    ],
    "date": "18.07.2016"
  },
  {
    "caption": "consetetur",
    "value": 50,
    "geographicalArea": "be",
    "aggregations": [
      {
        "caption": "consetetur 1",
        "value": 25,
        "geographicalArea": "be",
        "aggregations": [],
        "date": "10.08.2016"
      },
      {
        "caption": "consetetur 2",
        "value": 25,
        "geographicalArea": "be",
        "aggregations": [],
        "date": "15.08.2016"
      }
    ],
    "date": "10.08.2016"
  },
  {
    "caption": "sadipscing",
    "value": 48,
    "geographicalArea": "it",
    "aggregations": [
      {
        "caption": "sadipscing 1",
        "value": 24,
        "geographicalArea": "it",
        "aggregations": [],
        "date": "12.08.2016"
      },
      {
        "caption": "sadipscing 2",
        "value": 24,
        "geographicalArea": "it",
        "aggregations": [],
        "date": "02.09.2016"
      }
    ],
    "date": "12.08.2016"
  },
  {
    "caption": "elitr",
    "value": 46,
    "geographicalArea": "va",
    "aggregations": [
      {
        "caption": "elitr 1",
        "value": 23,
        "geographicalArea": "va",
        "aggregations": [],
        "date": "27.08.2016"
      },
      {
        "caption": "elitr 2",
        "value": 23,
        "geographicalArea": "va",
        "aggregations": [],
        "date": "25.09.2016"
      }
    ],
    "date": "27.08.2016"
  },
  {
    "caption": "sed",
    "value": 44,
    "geographicalArea": "by",
    "aggregations": [
      {
        "caption": "sed 1",
        "value": 22,
        "geographicalArea": "by",
        "aggregations": [],
        "date": "08.09.2016"
      },
      {
        "caption": "sed 2",
        "value": 22,
        "geographicalArea": "by",
        "aggregations": [],
        "date": "25.09.2016"
      }
    ],
    "date": "08.09.2016"
  },
  {
    "caption": "diam",
    "value": 42,
    "geographicalArea": "pl",
    "aggregations": [
      {
        "caption": "diam 1",
        "value": 21,
        "geographicalArea": "pl",
        "aggregations": [],
        "date": "09.09.2016"
      },
      {
        "caption": "diam 2",
        "value": 21,
        "geographicalArea": "pl",
        "aggregations": [],
        "date": "10.10.2016"
      }
    ],
    "date": "09.09.2016"
  },
  {
    "caption": "nonumy",
    "value": 40,
    "geographicalArea": "gr",
    "aggregations": [
      {
        "caption": "nonumy 1",
        "value": 20,
        "geographicalArea": "gr",
        "aggregations": [
          {
            "caption": "nonumy 1-1",
            "value": 10,
            "geographicalArea": "gr",
            "aggregations": [],
            "date": "18.12.2016"
          },
          {
            "caption": "nonumy 1-2",
            "value": 10,
            "geographicalArea": "gr",
            "aggregations": [],
            "date": "05.01.2017"
          }
        ],
        "date": "18.12.2016"
      },
      {
        "caption": "nonumy 2",
        "value": 20,
        "geographicalArea": "gr",
        "aggregations": [],
        "date": "24.11.2016"
      }
    ],
    "date": "18.12.2016"
  },
  {
    "caption": "eirmod",
    "value": 38,
    "geographicalArea": "tm",
    "aggregations": [
      {
        "caption": "eirmod 1",
        "value": 19,
        "geographicalArea": "tm",
        "aggregations": [],
        "date": "21.12.2016"
      },
      {
        "caption": "eirmod 2",
        "value": 19,
        "geographicalArea": "tm",
        "aggregations": [],
        "date": "12.01.2017"
      }
    ],
    "date": "21.12.2016"
  },
  {
    "caption": "tempor",
    "value": 108,
    "geographicalArea": "kz",
    "aggregations": [
      {
        "caption": "tempor 1",
        "value": 27,
        "geographicalArea": "kz",
        "aggregations": [],
        "date": "27.01.2017"
      },
      {
        "caption": "tempor 2",
        "value": 9,
        "geographicalArea": "kz",
        "aggregations": [],
        "date": "16.02.2017"
      },
      {
        "caption": "tempor 3",
        "value": 18,
        "geographicalArea": "kz",
        "aggregations": [
          {
            "caption": "tempor 3-1",
            "value": 3,
            "geographicalArea": "kz",
            "aggregations": [],
            "date": "23.02.2017"
          },
          {
            "caption": "tempor 3-2",
            "value": 3,
            "geographicalArea": "kz",
            "aggregations": [],
            "date": "28.02.2017"
          },
          {
            "caption": "tempor 3-3",
            "value": 3,
            "geographicalArea": "kz",
            "aggregations": [],
            "date": "16.03.2017"
          },
          {
            "caption": "tempor 3-4",
            "value": 3,
            "geographicalArea": "kz",
            "aggregations": [],
            "date": "16.05.2017"
          },
          {
            "caption": "tempor 3-5",
            "value": 3,
            "geographicalArea": "kz",
            "aggregations": [],
            "date": "07.06.2017"
          },
          {
            "caption": "tempor 3-6",
            "value": 3,
            "geographicalArea": "kz",
            "aggregations": [],
            "date": "08.06.2017"
          }
        ],
        "date": "23.02.2017"
      },
      {
        "caption": "tempor 4",
        "value": 18,
        "geographicalArea": "kz",
        "aggregations": [],
        "date": "28.02.2017"
      },
      {
        "caption": "tempor 5",
        "value": 9,
        "geographicalArea": "kz",
        "aggregations": [],
        "date": "16.03.2017"
      },
      {
        "caption": "tempor 6",
        "value": 27,
        "geographicalArea": "kz",
        "aggregations": [],
        "date": "16.05.2017"
      }
    ],
    "date": "27.01.2017"
  },
  {
    "caption": "invidunt",
    "value": 34,
    "geographicalArea": "fi",
    "aggregations": [
      {
        "caption": "invidunt 1",
        "value": 17,
        "geographicalArea": "fi",
        "aggregations": [],
        "date": "28.02.2017"
      },
      {
        "caption": "invidunt 2",
        "value": 17,
        "geographicalArea": "fi",
        "aggregations": [],
        "date": "27.01.2017"
      }
    ],
    "date": "28.02.2017"
  },
  {
    "caption": "takimata",
    "value": 32,
    "geographicalArea": "de",
    "aggregations": [
      {
        "caption": "takimata 1",
        "value": 16,
        "geographicalArea": "de",
        "aggregations": [],
        "date": "18.03.2017"
      },
      {
        "caption": "takimata 2",
        "value": 16,
        "geographicalArea": "de",
        "aggregations": [],
        "date": "21.03.2017"
      }
    ],
    "date": "18.03.2017"
  },
  {
    "caption": "labore",
    "value": 30,
    "geographicalArea": "se",
    "aggregations": [
      {
        "caption": "labore 1",
        "value": 15,
        "geographicalArea": "se",
        "aggregations": [],
        "date": "06.04.2017"
      },
      {
        "caption": "labore 2",
        "value": 15,
        "geographicalArea": "se",
        "aggregations": [],
        "date": "06.05.2017"
      }
    ],
    "date": "06.04.2017"
  },
  {
    "caption": "gubergren",
    "value": 28,
    "geographicalArea": "no",
    "aggregations": [
      {
        "caption": "gubergren 1",
        "value": 14,
        "geographicalArea": "no",
        "aggregations": [],
        "date": "14.04.2017"
      },
      {
        "caption": "gubergren 2",
        "value": 14,
        "geographicalArea": "no",
        "aggregations": [],
        "date": "02.06.2017"
      }
    ],
    "date": "14.04.2017"
  },
  {
    "caption": "sea",
    "value": 26,
    "geographicalArea": "md",
    "aggregations": [
      {
        "caption": "sea 1",
        "value": 13,
        "geographicalArea": "md",
        "aggregations": [],
        "date": "08.05.2017"
      },
      {
        "caption": "sea 2",
        "value": 13,
        "geographicalArea": "md",
        "aggregations": [],
        "date": "08.06.2017"
      }
    ],
    "date": "08.05.2017"
  },
  {
    "caption": "magna",
    "value": 112,
    "geographicalArea": "ua",
    "aggregations": [
      {
        "caption": "magna 1",
        "value": 56,
        "geographicalArea": "ua",
        "aggregations": [],
        "date": "10.06.2017"
      },
      {
        "caption": "magna 2",
        "value": 56,
        "geographicalArea": "ua",
        "aggregations": [],
        "date": "11.06.2017"
      }
    ],
    "date": "10.06.2017"
  },
  {
    "caption": "aliquyam",
    "value": 24,
    "geographicalArea": "sy",
    "aggregations": [
      {
        "caption": "aliquyam 1",
        "value": 12,
        "geographicalArea": "sy",
        "aggregations": [],
        "date": "14.06.2017"
      },
      {
        "caption": "aliquyam 2",
        "value": 12,
        "geographicalArea": "sy",
        "aggregations": [],
        "date": "13.07.2017"
      }
    ],
    "date": "14.06.2017"
  },
  {
    "caption": "erat",
    "value": 22,
    "geographicalArea": "il",
    "aggregations": [
      {
        "caption": "erat 1",
        "value": 11,
        "geographicalArea": "il",
        "aggregations": [],
        "date": "29.06.2017"
      },
      {
        "caption": "erat 2",
        "value": 11,
        "geographicalArea": "il",
        "aggregations": [],
        "date": "15.07.2017"
      }
    ],
    "date": "29.06.2017"
  },
  {
    "caption": "sanctus",
    "value": 20,
    "geographicalArea": "ps",
    "aggregations": [
      {
        "caption": "sanctus 1",
        "value": 10,
        "geographicalArea": "ps",
        "aggregations": [],
        "date": "06.10.2017"
      },
      {
        "caption": "sanctus 2",
        "value": 10,
        "geographicalArea": "ps",
        "aggregations": [],
        "date": "13.07.2017"
      }
    ],
    "date": "06.10.2017"
  },
  {
    "caption": "rebum",
    "value": 18,
    "geographicalArea": "jo",
    "aggregations": [
      {
        "caption": "rebum 1",
        "value": 9,
        "geographicalArea": "jo",
        "aggregations": [],
        "date": "26.10.2017"
      },
      {
        "caption": "rebum 2",
        "value": 9,
        "geographicalArea": "jo",
        "aggregations": [],
        "date": "03.11.2017"
      }
    ],
    "date": "26.10.2017"
  },
  {
    "caption": "voluptua",
    "value": 16,
    "geographicalArea": "sa",
    "aggregations": [
      {
        "caption": "voluptua 1",
        "value": 8,
        "geographicalArea": "sa",
        "aggregations": [],
        "date": "05.12.2017"
      },
      {
        "caption": "voluptua 2",
        "value": 8,
        "geographicalArea": "sa",
        "aggregations": [],
        "date": "06.12.2017"
      }
    ],
    "date": "05.12.2017"
  },
  {
    "caption": "kasd",
    "value": 72,
    "geographicalArea": "iq",
    "aggregations": [
      {
        "caption": "kasd 1",
        "value": 36,
        "geographicalArea": "iq",
        "aggregations": [],
        "date": "24.02.2016"
      },
      {
        "caption": "kasd 2",
        "value": 36,
        "geographicalArea": "iq",
        "aggregations": [],
        "date": "03.11.2017"
      }
    ],
    "date": "24.02.2016"
  },
  {
    "caption": "vero",
    "value": 14,
    "geographicalArea": "az",
    "aggregations": [
      {
        "caption": "vero 1",
        "value": 7,
        "geographicalArea": "az",
        "aggregations": [],
        "date": "28.03.2016"
      },
      {
        "caption": "vero 2",
        "value": 7,
        "geographicalArea": "az",
        "aggregations": [],
        "date": "03.11.2017"
      }
    ],
    "date": "28.03.2016"
  },
  {
    "caption": "eos",
    "value": 12,
    "geographicalArea": "ir",
    "aggregations": [
      {
        "caption": "eos 1",
        "value": 6,
        "geographicalArea": "ir",
        "aggregations": [],
        "date": "01.04.2016"
      },
      {
        "caption": "eos 2",
        "value": 6,
        "geographicalArea": "ir",
        "aggregations": [],
        "date": "23.03.2018"
      }
    ],
    "date": "01.04.2016"
  },
  {
    "caption": "clita",
    "value": 10,
    "geographicalArea": "ge",
    "aggregations": [
      {
        "caption": "clita 1",
        "value": 5,
        "geographicalArea": "ge",
        "aggregations": [],
        "date": "06.04.2016"
      },
      {
        "caption": "clita 2",
        "value": 5,
        "geographicalArea": "ge",
        "aggregations": [],
        "date": "29.05.2018"
      }
    ],
    "date": "06.04.2016"
  },
  {
    "caption": "accusam",
    "value": 8,
    "geographicalArea": "hr",
    "aggregations": [
      {
        "caption": "accusam 1",
        "value": 4,
        "geographicalArea": "hr",
        "aggregations": [],
        "date": "04.06.2016"
      },
      {
        "caption": "accusam 2",
        "value": 4,
        "geographicalArea": "hr",
        "aggregations": [],
        "date": "09.05.2018"
      }
    ],
    "date": "04.06.2016"
  },
  {
    "caption": "justo",
    "value": 6,
    "geographicalArea": "tr",
    "aggregations": [
      {
        "caption": "justo 1",
        "value": 3,
        "geographicalArea": "tr",
        "aggregations": [],
        "date": "24.06.2016"
      },
      {
        "caption": "justo 2",
        "value": 3,
        "geographicalArea": "tr",
        "aggregations": [],
        "date": "17.07.2018"
      }
    ],
    "date": "24.06.2016"
  },
  {
    "caption": "duo",
    "value": 4,
    "geographicalArea": "am",
    "aggregations": [
      {
        "caption": "duo 1",
        "value": 2,
        "geographicalArea": "am",
        "aggregations": [],
        "date": "13.07.2016"
      },
      {
        "caption": "duo 2",
        "value": 2,
        "geographicalArea": "am",
        "aggregations": [],
        "date": "09.05.2018"
      }
    ],
    "date": "13.07.2016"
  },
  {
    "caption": "bambi",
    "value": 0,
    "geographicalArea": "ie",
    "aggregations": [
      {
        "caption": "bambi 1",
        "value": 0,
        "geographicalArea": "ie",
        "aggregations": [],
        "date": "02.09.2016"
      },
      {
        "caption": "bambi 2",
        "value": 0,
        "geographicalArea": "ie",
        "aggregations": [],
        "date": "19.09.2018"
      }
    ],
    "date": "02.09.2016"
  },
  {
    "caption": "dorian",
    "value": -60,
    "geographicalArea": "ch",
    "aggregations": [
      {
        "caption": "dorian 1",
        "value": -15,
        "geographicalArea": "ch",
        "aggregations": [],
        "date": "19.09.2016"
      },
      {
        "caption": "dorian 2",
        "value": -15,
        "geographicalArea": "ch",
        "aggregations": [],
        "date": "12.11.2018"
      }
    ],
    "date": "19.09.2016"
  },
  {
    "caption": "brimborium",
    "value": -60,
    "geographicalArea": "at",
    "aggregations": [
      {
        "caption": "brimborium 1",
        "value": -35,
        "geographicalArea": "at",
        "aggregations": [],
        "date": "29.11.2016"
      },
      {
        "caption": "brimborium 2",
        "value": -25,
        "geographicalArea": "at",
        "aggregations": [],
        "date": "04.06.2018"
      }
    ],
    "date": "29.11.2016"
  }
]
