<?xml version="1.0" encoding="UTF-8"?>
<svg viewBox="0 0 1066 256" version="1.1" xmlns="http://www.w3.org/2000/svg">
    <!-- Generator: Sketch 48.2 (47327) - http://www.bohemiancoding.com/sketch -->
    <title>Flowable logo colour</title>
    <desc>Created with Sketch.</desc>
    <g id="Colour-palette-Alizarin-values-(selected)-Copy" stroke="none" stroke-width="1" fill="none"
       fill-rule="evenodd" transform="translate(-412.000000, -425.000000)">
        <g id="Group-2" transform="translate(401.000000, 417.000000)">
            <g id="Flowable-logo-colour">
                <g transform="translate(2.000000, 0.000000)">
                    <g id="Strap" transform="translate(218.000000, 199.000000)">
                        <path d="M46.642947,15.088 C54.816947,15.088 59.707947,20.314 59.707947,28.823 L59.707947,51 L52.002947,51 L52.002947,30.967 C52.002947,25.54 48.786947,22.257 43.560947,22.257 C37.463947,22.458 33.778947,27.148 33.778947,33.379 L33.778947,51 L26.073947,51 L26.073947,30.967 C26.073947,25.54 22.924947,22.257 17.698947,22.257 C11.534947,22.458 7.78294703,27.148 7.78294703,33.379 L7.78294703,51 L0.144947034,51 L0.144947034,15.356 L7.78294703,15.356 L7.78294703,22.257 C10.261947,17.232 14.817947,15.088 20.713947,15.088 C27.078947,15.088 31.433947,18.237 33.108947,23.664 C35.386947,17.701 40.143947,15.088 46.642947,15.088 Z M100.249947,51 L92.678947,51 L92.678947,46.645 C90.132947,49.794 86.045947,51.335 80.886947,51.335 C73.181947,51.335 68.357947,46.578 68.357947,40.28 C68.357947,33.781 73.248947,29.627 81.824947,29.56 L92.611947,29.56 L92.611947,28.488 C92.611947,23.999 89.730947,21.319 84.102947,21.319 C80.685947,21.319 77.134947,22.525 73.583947,24.937 L70.434947,19.577 C75.392947,16.629 79.010947,15.088 85.777947,15.088 C94.956947,15.088 100.115947,19.778 100.182947,27.617 L100.249947,51 Z M82.494947,45.238 C87.988947,45.238 92.209947,42.357 92.611947,38.471 L92.611947,35.188 L82.963947,35.188 C77.938947,35.188 75.593947,36.528 75.593947,39.945 C75.593947,43.161 78.206947,45.238 82.494947,45.238 Z M136.369947,51 L125.917947,34.652 L119.887947,41.017 L119.887947,51 L112.182947,51 L112.182947,1.286 L119.887947,1.286 L119.887947,31.302 L135.632947,15.356 L144.476947,15.356 L131.277947,29.158 L145.481947,51 L136.369947,51 Z M156.811947,0.549 C159.357947,0.549 161.300947,2.492 161.300947,5.172 C161.300947,7.785 159.357947,9.728 156.811947,9.728 C154.265947,9.728 152.322947,7.785 152.322947,5.172 C152.322947,2.492 154.265947,0.549 156.811947,0.549 Z M152.992947,15.356 L160.630947,15.356 L160.630947,51 L152.992947,51 L152.992947,15.356 Z M194.137947,15.088 C202.445947,15.088 207.403947,20.314 207.403947,28.823 L207.403947,51 L199.698947,51 L199.698947,30.967 C199.698947,25.607 196.482947,22.324 191.122947,22.324 C185.226947,22.391 181.541947,26.478 181.005947,32.039 L181.005947,51 L173.300947,51 L173.300947,15.356 L181.005947,15.356 L181.005947,22.19 C183.551947,17.232 188.107947,15.088 194.137947,15.088 Z M243.523947,15.356 L251.161947,15.356 L251.161947,47.516 C251.161947,57.767 243.858947,64.199 232.669947,64.199 C227.108947,64.199 222.217947,62.457 217.862947,59.509 L221.145947,53.948 C224.495947,56.427 227.979947,57.834 232.334947,57.834 C239.101947,57.834 243.523947,53.881 243.523947,47.717 L243.523947,43.228 C241.111947,47.114 237.091947,49.258 231.731947,49.258 C222.083947,49.258 215.651947,42.29 215.651947,32.039 C215.651947,21.989 222.016947,15.155 231.463947,15.088 C236.957947,15.021 241.044947,17.232 243.523947,21.118 L243.523947,15.356 Z M233.272947,43.228 C239.302947,43.228 243.523947,38.672 243.523947,32.24 C243.523947,25.808 239.302947,21.319 233.272947,21.319 C227.175947,21.319 222.954947,25.875 222.887947,32.24 C222.954947,38.672 227.108947,43.228 233.272947,43.228 Z M587.973947,15.088 C598.090947,15.088 604.991947,22.458 604.991947,33.312 C604.991947,43.965 598.291947,51.268 588.107947,51.268 C582.412947,51.268 578.124947,48.99 575.511947,44.836 L575.511947,63.998 L567.806947,63.998 L567.806947,15.356 L575.511947,15.356 L575.511947,21.52 C578.124947,17.366 582.412947,15.088 587.973947,15.088 Z M586.365947,44.702 C592.730947,44.702 597.219947,39.878 597.219947,33.044 C597.219947,26.411 592.730947,21.52 586.365947,21.52 C580.000947,21.52 575.511947,26.344 575.511947,33.044 C575.511947,39.945 580.000947,44.702 586.365947,44.702 Z M628.984947,15.088 C641.513947,15.088 646.605947,23.262 645.667947,36.126 L618.733947,36.126 C619.939947,41.62 624.160947,45.037 629.788947,45.037 C633.674947,45.037 637.225947,43.563 639.838947,40.883 L643.925947,45.238 C640.441947,49.057 635.349947,51.268 629.185947,51.268 C618.197947,51.268 610.961947,43.965 610.961947,33.245 C610.961947,22.458 618.398947,15.155 628.984947,15.088 Z M618.599947,30.498 L638.967947,30.498 C638.699947,24.736 634.880947,21.252 629.051947,21.252 C623.423947,21.252 619.403947,24.803 618.599947,30.498 Z M662.692947,22.458 C665.104947,17.634 669.392947,15.088 675.020947,15.088 L675.020947,22.458 C667.851947,22.056 663.295947,26.277 662.692947,32.374 L662.692947,51 L654.987947,51 L654.987947,15.356 L662.692947,15.356 L662.692947,22.458 Z M702.966947,24.334 C699.817947,22.391 695.864947,21.185 692.715947,21.185 C689.700947,21.185 687.489947,22.19 687.489947,24.736 C687.489947,31.302 706.450947,27.751 706.383947,40.682 C706.383947,47.985 699.884947,51.268 692.715947,51.268 C687.489947,51.268 681.928947,49.526 678.377947,46.31 L681.124947,40.816 C684.206947,43.563 689.164947,45.238 693.050947,45.238 C696.333947,45.238 698.879947,44.099 698.879947,41.419 C698.879947,34.116 680.119947,38.203 680.186947,25.339 C680.186947,18.103 686.484947,15.021 693.318947,15.021 C697.807947,15.021 702.564947,16.361 705.780947,18.639 L702.966947,24.334 Z M730.711946,15.088 C741.699946,15.088 749.270946,22.391 749.270946,33.111 C749.270946,43.898 741.699946,51.268 730.711946,51.268 C719.656946,51.268 712.085946,43.898 712.085946,33.111 C712.085946,22.391 719.656946,15.088 730.711946,15.088 Z M730.711946,21.654 C724.279946,21.654 719.790946,26.411 719.790946,33.245 C719.790946,40.146 724.279946,44.836 730.711946,44.836 C737.076946,44.836 741.565946,40.146 741.565946,33.245 C741.565946,26.411 737.076946,21.654 730.711946,21.654 Z M779.427946,15.088 C787.735946,15.088 792.693946,20.314 792.693946,28.823 L792.693946,51 L784.988946,51 L784.988946,30.967 C784.988946,25.607 781.772946,22.324 776.412946,22.324 C770.516946,22.391 766.831946,26.478 766.295946,32.039 L766.295946,51 L758.590946,51 L758.590946,15.356 L766.295946,15.356 L766.295946,22.19 C768.841946,17.232 773.397946,15.088 779.427946,15.088 Z M833.235946,51 L825.664946,51 L825.664946,46.645 C823.118946,49.794 819.031946,51.335 813.872946,51.335 C806.167946,51.335 801.343946,46.578 801.343946,40.28 C801.343946,33.781 806.234946,29.627 814.810946,29.56 L825.597946,29.56 L825.597946,28.488 C825.597946,23.999 822.716946,21.319 817.088946,21.319 C813.671946,21.319 810.120946,22.525 806.569946,24.937 L803.420946,19.577 C808.378946,16.629 811.996946,15.088 818.763946,15.088 C827.942946,15.088 833.101946,19.778 833.168946,27.617 L833.235946,51 Z M815.480946,45.238 C820.974946,45.238 825.195946,42.357 825.597946,38.471 L825.597946,35.188 L815.949946,35.188 C810.924946,35.188 808.579946,36.528 808.579946,39.945 C808.579946,43.161 811.192946,45.238 815.480946,45.238 Z M845.168946,1.286 L852.873946,1.286 L852.873946,51 L845.168946,51 L845.168946,1.286 Z"
                              fill="#A8BAC1"/>
                        <g id="Process" transform="translate(284.000000, 15.000000)" fill="#E74C3C">
                            <path d="M21.0439468,0.088 C31.1609468,0.088 38.0619468,7.458 38.0619468,18.312 C38.0619468,28.965 31.3619468,36.268 21.1779468,36.268 C15.4829468,36.268 11.1949468,33.99 8.58194683,29.836 L8.58194683,48.998 L0.876946834,48.998 L0.876946834,0.356 L8.58194683,0.356 L8.58194683,6.52 C11.1949468,2.366 15.4829468,0.088 21.0439468,0.088 Z M19.4359468,29.702 C25.8009468,29.702 30.2899468,24.878 30.2899468,18.044 C30.2899468,11.411 25.8009468,6.52 19.4359468,6.52 C13.0709468,6.52 8.58194683,11.344 8.58194683,18.044 C8.58194683,24.945 13.0709468,29.702 19.4359468,29.702 Z"
                                  id="Combined-Shape"/>
                            <path d="M55.0869468,7.458 C57.4989468,2.634 61.7869468,0.088 67.4149468,0.088 L67.4149468,7.458 C60.2459468,7.056 55.6899468,11.277 55.0869468,17.374 L55.0869468,36 L47.3819468,36 L47.3819468,0.356 L55.0869468,0.356 L55.0869468,7.458 Z"
                                  id="Path"/>
                            <path d="M90.3359468,0.088 C101.323947,0.088 108.894947,7.391 108.894947,18.111 C108.894947,28.898 101.323947,36.268 90.3359468,36.268 C79.2809468,36.268 71.7099468,28.898 71.7099468,18.111 C71.7099468,7.391 79.2809468,0.088 90.3359468,0.088 Z M90.3359468,6.654 C83.9039468,6.654 79.4149468,11.411 79.4149468,18.245 C79.4149468,25.146 83.9039468,29.836 90.3359468,29.836 C96.7009468,29.836 101.189947,25.146 101.189947,18.245 C101.189947,11.411 96.7009468,6.654 90.3359468,6.654 Z"
                                  id="Combined-Shape"/>
                            <path d="M143.339947,10.875 C140.860947,8.329 137.443947,6.788 133.155947,6.855 C126.991947,6.855 122.569947,11.478 122.569947,18.245 C122.569947,25.012 126.991947,29.635 133.155947,29.635 C137.644947,29.635 141.262947,28.161 143.674947,25.347 L147.962947,29.635 C144.746947,33.856 139.587947,36.268 132.820947,36.268 C122.234947,36.268 114.864947,28.965 114.864947,18.245 C114.864947,7.458 122.234947,0.088 132.820947,0.088 C139.252947,0.088 144.277947,2.165 147.560947,5.917 L143.339947,10.875 Z"
                                  id="Path"/>
                            <path d="M170.548947,0.088 C183.077947,0.088 188.169947,8.262 187.231947,21.126 L160.297947,21.126 C161.503947,26.62 165.724947,30.037 171.352947,30.037 C175.238947,30.037 178.789947,28.563 181.402947,25.883 L185.489947,30.238 C182.005947,34.057 176.913947,36.268 170.749947,36.268 C159.761947,36.268 152.525947,28.965 152.525947,18.245 C152.525947,7.458 159.962947,0.155 170.548947,0.088 Z M160.163947,15.498 L180.531947,15.498 C180.263947,9.736 176.444947,6.252 170.615947,6.252 C164.987947,6.252 160.967947,9.803 160.163947,15.498 Z"
                                  id="Combined-Shape"/>
                            <path d="M216.852947,9.334 C213.703947,7.391 209.750947,6.185 206.601947,6.185 C203.586947,6.185 201.375947,7.19 201.375947,9.736 C201.375947,16.302 220.336947,12.751 220.269947,25.682 C220.269947,32.985 213.770947,36.268 206.601947,36.268 C201.375947,36.268 195.814947,34.526 192.263947,31.31 L195.010947,25.816 C198.092947,28.563 203.050947,30.238 206.936947,30.238 C210.219947,30.238 212.765947,29.099 212.765947,26.419 C212.765947,19.116 194.005947,23.203 194.072947,10.339 C194.072947,3.103 200.370947,0.021 207.204947,0.021 C211.693947,0.021 216.450947,1.361 219.666947,3.639 L216.852947,9.334 Z"
                                  id="Path"/>
                            <path d="M249.622947,9.334 C246.473947,7.391 242.520947,6.185 239.371947,6.185 C236.356947,6.185 234.145947,7.19 234.145947,9.736 C234.145947,16.302 253.106947,12.751 253.039947,25.682 C253.039947,32.985 246.540947,36.268 239.371947,36.268 C234.145947,36.268 228.584947,34.526 225.033947,31.31 L227.780947,25.816 C230.862947,28.563 235.820947,30.238 239.706947,30.238 C242.989947,30.238 245.535947,29.099 245.535947,26.419 C245.535947,19.116 226.775947,23.203 226.842947,10.339 C226.842947,3.103 233.140947,0.021 239.974947,0.021 C244.463947,0.021 249.220947,1.361 252.436947,3.639 L249.622947,9.334 Z"
                                  id="Path"/>
                        </g>
                    </g>
                    <g id="Type" transform="translate(218.000000, 8.000000)">
                        <g id="F" transform="translate(0.000000, 0.910000)"/>
                        <path d="M850.990453,113.63327 C847.47737,117.283569 844.389032,119.46875 828.81698,119.46875 L771.412459,119.46875 C775.55648,131.355758 786.842169,138.96875 800.11472,138.96875 C809.893062,138.96875 818.592981,134.340459 824.153158,127.15011 C824.305632,126.952932 837.991304,127.15011 852.796418,127.15011 C850.990453,136.959717 847.066842,143.879456 842.497468,148.392591 C831.379145,159.374074 816.661524,167 799.810758,167 C767.578972,167 741.449947,140.808658 741.449947,108.5 C741.449947,76.1913421 767.578972,50 799.810758,50 C827.056819,50 849.131405,67.0345481 855.760646,92.2849121 C857.656257,99.5051727 855.504775,108.942625 850.990453,113.63327 Z M800.11472,78.3359375 C786.842169,78.3359375 775.55648,86.8629924 771.412459,98.75 L828.81698,98.75 C824.672961,86.8629924 813.387271,78.3359375 800.11472,78.3359375 Z"
                              id="e" fill="#A8BAC1"/>
                        <polygon id="l" fill="#A8BAC1"
                                 transform="translate(717.449947, 83.500000) scale(-1, 1) translate(-717.449947, -83.500000) "
                                 points="703.449947 0.0632132536 731.449947 0 731.449947 167 703.449947 167"/>
                        <path d="M575.477729,110.420765 L575.449947,110.420765 L575.449947,5.55111512e-17 L602.93953,0.00203094271 L602.93953,58.9156462 C611.802796,53.3844714 622.256046,50.1912568 633.449947,50.1912568 C665.482463,50.1912568 691.449947,76.3397847 691.449947,108.595628 C691.449947,140.851472 665.482463,167 633.449947,167 C602.023819,167 576.43527,141.832105 575.477729,110.420773 L575.477729,110.420765 Z M633.298905,138.406193 C649.732253,138.406193 663.054114,124.991454 663.054114,108.443534 C663.054114,91.8956139 649.732253,78.4808743 633.298905,78.4808743 C616.865558,78.4808743 603.543697,91.8956139 603.543697,108.443534 C603.543697,124.991454 616.865558,138.406193 633.298905,138.406193 Z"
                              id="Combined-Shape" fill="#A8BAC1"/>
                        <path d="M531.723385,50 L559.449947,50 L559.449947,166.633169 L531.723385,166.633169 L531.723385,158.261326 C522.783712,163.801557 512.240347,167 500.949947,167 C468.641289,167 442.449947,140.808658 442.449947,108.5 C442.449947,76.1913421 468.641289,50 500.949947,50 C512.240347,50 522.783712,53.198443 531.723385,58.7386742 L531.723385,50 Z M501.102291,138.359375 C517.677305,138.359375 531.11401,124.922671 531.11401,108.347656 C531.11401,91.7726417 517.677305,78.3359375 501.102291,78.3359375 C484.527276,78.3359375 471.090572,91.7726417 471.090572,108.347656 C471.090572,124.922671 484.527276,138.359375 501.102291,138.359375 Z"
                              id="Combined-Shape" fill="#A8BAC1"/>
                        <path d="M405.171216,50 L433.394081,50 C433.431325,61.9806685 433.449947,68.1103188 433.449947,68.3889509 L433.449947,117.694475 C433.449947,144.988605 411.31453,167 383.866614,167 C369.921301,167 357.304114,161.497151 348.449947,152.252365 C339.374426,161.497151 326.978593,167 313.03328,167 C285.585364,167 263.449947,144.988605 263.449947,117.694475 L263.449947,50 L291.78605,50 C291.784203,61.8663146 291.78328,67.9959649 291.78328,68.3889509 L291.78328,117.694475 C291.78328,129.360515 301.30151,138.825415 313.03328,138.825415 C324.765051,138.825415 334.28328,129.360515 334.28328,117.694475 L334.28328,68.3889509 C334.28328,67.8872163 334.342959,61.757566 334.462317,50 L362.685183,50 L362.685183,80.244258 L362.616614,117.694475 C362.616614,129.360515 372.134843,138.825415 383.866614,138.825415 C395.598385,138.825415 405.116614,129.360515 405.116614,117.694475 L405.116614,68.3889509 C405.116614,68.1135107 405.134814,61.9838605 405.171216,50 Z"
                              id="Combined-Shape" fill="#1F3245"/>
                        <path d="M194.968908,167 C162.649778,167 136.449947,140.808658 136.449947,108.5 C136.449947,76.1913421 162.649778,50 194.968908,50 C227.288038,50 253.48787,76.1913421 253.48787,108.5 C253.48787,140.808658 227.288038,167 194.968908,167 Z M194.968908,138.564557 C211.578487,138.564557 225.04321,125.104196 225.04321,108.5 C225.04321,91.8958037 211.578487,78.435443 194.968908,78.435443 C178.35933,78.435443 164.894607,91.8958037 164.894607,108.5 C164.894607,125.104196 178.35933,138.564557 194.968908,138.564557 Z"
                              id="o" fill="#1F3245"/>
                        <polygon id="l" fill="#1F3245"
                                 transform="translate(113.606361, 83.511560) scale(-1, 1) translate(-113.606361, -83.511560) "
                                 points="99.8345103 0.301555771 127.378213 0.301555771 127.378213 166.721565 99.8345103 166.721565"/>
                        <path d="M30.3721855,64.2307692 L85.4171658,64.2307692 L85.4171658,92.0641026 L30.3721855,92.0641026 C29.8556743,92.0641026 29.097479,92.0013806 28.0975995,91.8759368 L28.0975995,167 L0.499289863,167 L0.499289863,166.444861 C0.388268498,166.528529 0.499289863,165.98607 0.499289863,165.527279 L0.499289863,59.6175984 C-0.384087277,16.0429667 20.7465597,1.22429135 49.1279917,0.171150229 C49.8350339,0.0584981828 50.5599313,1.12226102e-16 51.2983763,0 L88.449947,0 L88.449947,27.8333333 L51.6971884,27.8333333 C38.4090559,27.9464992 28.0975995,36.148158 28.0975995,58.8302458 L28.0975995,64.418935 C28.837565,64.2951636 29.5974187,64.2307692 30.3721855,64.2307692 Z"
                              id="Combined-Shape" fill="#1F3245"/>
                    </g>
                    <g id="Logo" fill="#E74C3C" fill-rule="nonzero">
                        <path d="M26.9332655,182 L62.0493892,146.873259 L67.5860408,146.873259 C76.8239205,146.873259 84.3127016,139.382214 84.3127016,130.141541 L84.3127016,124.603216 L129.474686,79.427577 L129.474686,134.324471 C129.474686,141.254975 135.091271,146.873259 142.019681,146.873259 C148.948091,146.873259 154.564677,141.254975 154.564677,134.324471 L154.564677,50.7993199 C155.108011,47.019181 153.926005,43.038645 151.018661,40.1304214 C148.841146,37.9522482 146.062292,36.7422079 143.216654,36.5003004 C142.822685,36.4629978 142.42341,36.4439205 142.019681,36.4439205 L56.7137114,36.4439205 C49.7853016,36.4439205 44.1687158,42.0622045 44.1687158,48.992709 C44.1687158,55.9232135 49.7853016,61.5414975 56.7137114,61.5414975 L111.872753,61.5414975 L66.7107693,106.717136 L60.8953765,106.717136 C51.6574969,106.717136 44.1687158,114.208181 44.1687158,123.448854 L44.1687158,129.266005 L9,164.445354 C15.7333925,143.987973 15.7333925,142.095374 15.7333925,134.324471 L15.7333925,48.992709 C15.7333925,26.353061 34.0809062,8 56.7137114,8 L142.019681,8 C164.652486,8 183,26.353061 183,48.992709 L183,134.324471 C183,156.964119 164.652486,175.31718 142.019681,175.31718 L56.7137114,175.31718 C49.3964583,175.31718 47.5981618,175.31718 26.9332655,182 Z"
                              id="Combined-Shape"/>
                    </g>
                </g>
            </g>
        </g>
    </g>
</svg>