[
  {
    "caption": "lorem",
    "value": 120,
    "weight": 10,
    "group": "Group 1",
    "aggregations": [
      {
        "caption": "lorem 1",
        "value": 20,
        "weight": 2,
        "group": "Group 1",
        "aggregations": []
      },
      {
        "caption": "lorem 2",
        "value": 30,
        "weight": 2,
        "group": "Group 1",
        "aggregations": []
      },
      {
        "caption": "lorem 3",
        "value": 40,
        "weight": 2,
        "group": "Group 1",
        "aggregations": []
      },
      {
        "caption": "lorem 4",
        "value": 25,
        "weight": 2,
        "group": "Group 1",
        "aggregations": []
      },
      {
        "caption": "lorem 5",
        "value": 5,
        "weight": 2,
        "group": "Group 1",
        "aggregations": []
      }
    ]
  },
  {
    "caption": "simbalabim",
    "value": 120,
    "weight": 6,
    "group": "Group 1",
    "aggregations": []
  },
  {
    "caption": "ipsum",
    "value": 87,
    "weight": 9,
    "group": "Group 2",
    "aggregations": [
      {
        "caption": "ipsum 1",
        "value": 29,
        "weight": 3,
        "group": "Group 2",
        "aggregations": []
      },
      {
        "caption": "ipsum 2",
        "value": 29,
        "weight": 3,
        "group": "Group 2",
        "aggregations": []
      },
      {
        "caption": "ipsum 3",
        "value": 29,
        "weight": 3,
        "group": "Group 2",
        "aggregations": []
      }
    ]
  },
  {
    "caption": "dolor",
    "value": 56,
    "weight": 10,
    "group": "Group 2",
    "aggregations": [
      {
        "caption": "dolor 1",
        "value": 28,
        "weight": 5,
        "group": "Group 2",
        "aggregations": []
      },
      {
        "caption": "dolor 2",
        "value": 28,
        "weight": 5,
        "group": "Group 2",
        "aggregations": []
      }
    ]
  },
  {
    "caption": "sit",
    "value": 108,
    "weight": 216,
    "group": "Group 2",
    "aggregations": [
      {
        "caption": "sit 1",
        "value": 54,
        "weight": 108,
        "group": "Group 2",
        "aggregations": [
          {
            "caption": "sit 1-1",
            "value": 27,
            "weight": 54,
            "group": "Group 2",
            "aggregations": [
              {
                "caption": "sit 1-1-1",
                "value": 13.5,
                "weight": 27,
                "group": "Group 2",
                "aggregations": [
                  {
                    "caption": "sit 1-1-1-1",
                    "value": 6.75,
                    "weight": 13.5,
                    "group": "Group 2",
                    "aggregations": [
                      {
                        "caption": "sit 1-1-1-1-1",
                        "value": 3.375,
                        "weight": 6.75,
                        "group": "Group 2",
                        "aggregations": []
                      },
                      {
                        "caption": "sit 1-1-1-1-2",
                        "value": 3.375,
                        "weight": 6.75,
                        "group": "Group 2",
                        "aggregations": []
                      }
                    ]
                  },
                  {
                    "caption": "sit 1-1-2-1",
                    "value": 6.75,
                    "weight": 13.5,
                    "group": "Group 2",
                    "aggregations": []
                  }
                ]
              },
              {
                "caption": "sit 1-1-2",
                "value": 13.5,
                "weight": 27,
                "group": "Group 2",
                "aggregations": []
              }
            ]
          },
          {
            "caption": "sit 1-2",
            "value": 27,
            "weight": 54,
            "group": "Group 2",
            "aggregations": []
          }
        ]
      },
      {
        "caption": "sit 2",
        "value": 54,
        "weight": 108,
        "group": "Group 2",
        "aggregations": [
          {
            "caption": "sit 2-1",
            "value": 27,
            "weight": 54,
            "group": "Group 2",
            "aggregations": []
          },
          {
            "caption": "sit 2-2",
            "value": 27,
            "weight": 54,
            "group": "Group 2",
            "aggregations": []
          }
        ]
      }
    ]
  },
  {
    "caption": "amet",
    "value": 52,
    "weight": 12,
    "group": "Group 2",
    "aggregations": [
      {
        "caption": "amet 1",
        "value": 26,
        "weight": 6,
        "group": "Group 2",
        "aggregations": []
      },
      {
        "caption": "amet 2",
        "value": 26,
        "weight": 6,
        "group": "Group 2",
        "aggregations": []
      }
    ]
  },
  {
    "caption": "consetetur",
    "value": 50,
    "weight": 14,
    "group": "Group 2",
    "aggregations": [
      {
        "caption": "consetetur 1",
        "value": 25,
        "weight": 7,
        "group": "Group 2",
        "aggregations": []
      },
      {
        "caption": "consetetur 2",
        "value": 25,
        "weight": 7,
        "group": "Group 2",
        "aggregations": []
      }
    ]
  },
  {
    "caption": "sadipscing",
    "value": 48,
    "weight": 72,
    "group": "Group 3",
    "aggregations": [
      {
        "caption": "sadipscing 1",
        "value": 24,
        "weight": 36,
        "group": "Group 3",
        "aggregations": []
      },
      {
        "caption": "sadipscing 2",
        "value": 24,
        "weight": 36,
        "group": "Group 3",
        "aggregations": []
      }
    ]
  },
  {
    "caption": "elitr",
    "value": 46,
    "weight": 16,
    "group": "Group 3",
    "aggregations": [
      {
        "caption": "elitr 1",
        "value": 23,
        "weight": 8,
        "group": "Group 3",
        "aggregations": []
      },
      {
        "caption": "elitr 2",
        "value": 23,
        "weight": 8,
        "group": "Group 3",
        "aggregations": []
      }
    ]
  },
  {
    "caption": "sed",
    "value": 44,
    "weight": 18,
    "group": "Group 3",
    "aggregations": [
      {
        "caption": "sed 1",
        "value": 22,
        "weight": 9,
        "group": "Group 3",
        "aggregations": []
      },
      {
        "caption": "sed 2",
        "value": 22,
        "weight": 9,
        "group": "Group 3",
        "aggregations": []
      }
    ]
  },
  {
    "caption": "diam",
    "value": 42,
    "weight": 20,
    "group": "Group 3",
    "aggregations": [
      {
        "caption": "diam 1",
        "value": 21,
        "weight": 10,
        "group": "Group 3",
        "aggregations": []
      },
      {
        "caption": "diam 2",
        "value": 21,
        "weight": 10,
        "group": "Group 3",
        "aggregations": []
      }
    ]
  },
  {
    "caption": "nonumy",
    "value": 40,
    "weight": 22,
    "group": "Group 3",
    "aggregations": [
      {
        "caption": "nonumy 1",
        "value": 20,
        "weight": 11,
        "group": "Group 3",
        "aggregations": [
          {
            "caption": "nonumy 1-1",
            "value": 10,
            "weight": 5.5,
            "group": "Group 3",
            "aggregations": []
          },
          {
            "caption": "nonumy 1-2",
            "value": 10,
            "weight": 5.5,
            "group": "Group 3",
            "aggregations": []
          }
        ]
      },
      {
        "caption": "nonumy 2",
        "value": 20,
        "weight": 11,
        "group": "Group 3",
        "aggregations": []
      }
    ]
  },
  {
    "caption": "eirmod",
    "value": 38,
    "weight": 24,
    "group": "Group 3",
    "aggregations": [
      {
        "caption": "eirmod 1",
        "value": 19,
        "weight": 12,
        "group": "Group 3",
        "aggregations": []
      },
      {
        "caption": "eirmod 2",
        "value": 19,
        "weight": 12,
        "group": "Group 3",
        "aggregations": []
      }
    ]
  }
]
