[
  {
    "category": "tempor",
    "amount": 108,
    "group": "Group 3",
    "aggregations": [
      {
        "category": "tempor 1",
        "amount": 27,
        "group": "Group 3",
        "aggregations": []
      },
      {
        "category": "tempor 2",
        "amount": 9,
        "group": "Group 3",
        "aggregations": []
      },
      {
        "category": "tempor 3",
        "amount": 18,
        "group": "Group 3",
        "aggregations": [
          {
            "category": "tempor 3-1",
            "amount": 3,
            "group": "Group 3",
            "aggregations": []
          },
          {
            "category": "tempor 3-2",
            "amount": 3,
            "group": "Group 3",
            "aggregations": []
          },
          {
            "category": "tempor 3-3",
            "amount": 3,
            "group": "Group 3",
            "aggregations": []
          },
          {
            "category": "tempor 3-4",
            "amount": 3,
            "group": "Group 3",
            "aggregations": []
          },
          {
            "category": "tempor 3-5",
            "amount": 3,
            "group": "Group 3",
            "aggregations": []
          },
          {
            "category": "tempor 3-6",
            "amount": 3,
            "group": "Group 3",
            "aggregations": []
          }
        ]
      },
      {
        "category": "tempor 4",
        "amount": 18,
        "group": "Group 3",
        "aggregations": []
      },
      {
        "category": "tempor 5",
        "amount": 9,
        "group": "Group 3",
        "aggregations": []
      },
      {
        "category": "tempor 6",
        "amount": 27,
        "group": "Group 3",
        "aggregations": []
      }
    ]
  },
  {
    "category": "invidunt",
    "amount": 34,
    "group": "Group 4",
    "aggregations": [
      {
        "category": "invidunt 1",
        "amount": 17,
        "group": "Group 4",
        "aggregations": []
      },
      {
        "category": "invidunt 2",
        "amount": 17,
        "group": "Group 4",
        "aggregations": []
      }
    ]
  },
  {
    "category": "takimata",
    "amount": 32,
    "group": "Group 4",
    "aggregations": [
      {
        "category": "takimata 1",
        "amount": 16,
        "group": "Group 4",
        "aggregations": []
      },
      {
        "category": "takimata 2",
        "amount": 16,
        "group": "Group 4",
        "aggregations": []
      }
    ]
  },
  {
    "category": "labore",
    "amount": 30,
    "group": "Group 4",
    "aggregations": [
      {
        "category": "labore 1",
        "amount": 15,
        "group": "Group 4",
        "aggregations": []
      },
      {
        "category": "labore 2",
        "amount": 15,
        "group": "Group 4",
        "aggregations": []
      }
    ]
  },
  {
    "category": "gubergren",
    "amount": 28,
    "group": "Group 4",
    "aggregations": [
      {
        "category": "gubergren 1",
        "amount": 14,
        "group": "Group 4",
        "aggregations": []
      },
      {
        "category": "gubergren 2",
        "amount": 14,
        "group": "Group 4",
        "aggregations": []
      }
    ]
  },
  {
    "category": "sea",
    "amount": 26,
    "group": "Group 4",
    "aggregations": [
      {
        "category": "sea 1",
        "amount": 13,
        "group": "Group 4",
        "aggregations": []
      },
      {
        "category": "sea 2",
        "amount": 13,
        "group": "Group 4",
        "aggregations": []
      }
    ]
  },
  {
    "category": "magna",
    "amount": 112,
    "group": "Group 4",
    "aggregations": [
      {
        "category": "magna 1",
        "amount": 56,
        "group": "Group 4",
        "aggregations": []
      },
      {
        "category": "magna 2",
        "amount": 56,
        "group": "Group 4",
        "aggregations": []
      }
    ]
  },
  {
    "category": "aliquyam",
    "amount": 24,
    "group": "Group 4",
    "aggregations": [
      {
        "category": "aliquyam 1",
        "amount": 12,
        "group": "Group 4",
        "aggregations": []
      },
      {
        "category": "aliquyam 2",
        "amount": 12,
        "group": "Group 4",
        "aggregations": []
      }
    ]
  },
  {
    "category": "erat",
    "amount": 22,
    "group": "Group 4",
    "aggregations": [
      {
        "category": "erat 1",
        "amount": 11,
        "group": "Group 4",
        "aggregations": []
      },
      {
        "category": "erat 2",
        "amount": 11,
        "group": "Group 4",
        "aggregations": []
      }
    ]
  },
  {
    "category": "sanctus",
    "amount": 20,
    "group": "Group 4",
    "aggregations": [
      {
        "category": "sanctus 1",
        "amount": 10,
        "group": "Group 4",
        "aggregations": []
      },
      {
        "category": "sanctus 2",
        "amount": 10,
        "group": "Group 4",
        "aggregations": []
      }
    ]
  },
  {
    "category": "rebum",
    "amount": 18,
    "group": "Group 4",
    "aggregations": [
      {
        "category": "rebum 1",
        "amount": 9,
        "group": "Group 4",
        "aggregations": []
      },
      {
        "category": "rebum 2",
        "amount": 9,
        "group": "Group 4",
        "aggregations": []
      }
    ]
  },
  {
    "category": "voluptua",
    "amount": 16,
    "group": "Group 4",
    "aggregations": [
      {
        "category": "voluptua 1",
        "amount": 8,
        "group": "Group 4",
        "aggregations": []
      },
      {
        "category": "voluptua 2",
        "amount": 8,
        "group": "Group 4",
        "aggregations": []
      }
    ]
  },
  {
    "category": "kasd",
    "amount": 72,
    "group": "Group 4",
    "aggregations": [
      {
        "category": "kasd 1",
        "amount": 36,
        "group": "Group 4",
        "aggregations": []
      },
      {
        "category": "kasd 2",
        "amount": 36,
        "group": "Group 4",
        "aggregations": []
      }
    ]
  },
  {
    "category": "vero",
    "amount": 14,
    "group": "Group 4",
    "aggregations": [
      {
        "category": "vero 1",
        "amount": 7,
        "group": "Group 4",
        "aggregations": []
      },
      {
        "category": "vero 2",
        "amount": 7,
        "group": "Group 4",
        "aggregations": []
      }
    ]
  },
  {
    "category": "eos",
    "amount": 12,
    "group": "Group 4",
    "aggregations": [
      {
        "category": "eos 1",
        "amount": 6,
        "group": "Group 4",
        "aggregations": []
      },
      {
        "category": "eos 2",
        "amount": 6,
        "group": "Group 4",
        "aggregations": []
      }
    ]
  },
  {
    "category": "clita",
    "amount": 10,
    "group": "Group 4",
    "aggregations": [
      {
        "category": "clita 1",
        "amount": 5,
        "group": "Group 4",
        "aggregations": []
      },
      {
        "category": "clita 2",
        "amount": 5,
        "group": "Group 4",
        "aggregations": []
      }
    ]
  },
  {
    "category": "accusam",
    "amount": 8,
    "group": "Group 5",
    "aggregations": [
      {
        "category": "accusam 1",
        "amount": 4,
        "group": "Group 5",
        "aggregations": []
      },
      {
        "category": "accusam 2",
        "amount": 4,
        "group": "Group 5",
        "aggregations": []
      }
    ]
  },
  {
    "category": "justo",
    "amount": 6,
    "group": "Group 5",
    "aggregations": [
      {
        "category": "justo 1",
        "amount": 3,
        "group": "Group 5",
        "aggregations": []
      },
      {
        "category": "justo 2",
        "amount": 3,
        "group": "Group 5",
        "aggregations": []
      }
    ]
  },
  {
    "category": "duo",
    "amount": 4,
    "group": "Group 5",
    "aggregations": [
      {
        "category": "duo 1",
        "amount": 2,
        "group": "Group 5",
        "aggregations": []
      },
      {
        "category": "duo 2",
        "amount": 2,
        "group": "Group 5",
        "aggregations": []
      }
    ]
  }
]
