[
  {
    "category": "elitr",
    "amount": 46,
    "group": "Group 3",
    "aggregations": [
      {
        "category": "elitr 1",
        "amount": 23,
        "group": "Group 3",
        "aggregations": [],
        "date": "21.07.2016"
      },
      {
        "category": "elitr 2",
        "amount": 41,
        "group": "Group 3",
        "aggregations": [],
        "date": "25.09.2016"
      },
      {
        "category": "elitr 3",
        "amount": 26,
        "group": "Group 3",
        "aggregations": [],
        "date": "25.10.2016"
      }
    ],
    "date": "21.07.2016"
  },
  {
    "category": "brimborium",
    "amount": -60,
    "group": "Group 4",
    "aggregations": [
      {
        "category": "brimborium 1",
        "amount": -35,
        "group": "Group 4",
        "aggregations": [],
        "date": "29.11.2016"
      },
      {
        "category": "brimborium 2",
        "amount": -25,
        "group": "Group 4",
        "aggregations": [],
        "date": "04.06.2018"
      }
    ],
    "date": "29.11.2016"
  }
]